{
  "type": "File",
  "start": 0,
  "end": 595,
  "loc": {
    "start": {
      "line": 1,
      "column": 0
    },
    "end": {
      "line": 26,
      "column": 0
    }
  },
  "program": {
    "type": "Program",
    "start": 0,
    "end": 595,
    "loc": {
      "start": {
        "line": 1,
        "column": 0
      },
      "end": {
        "line": 26,
        "column": 0
      }
    },
    "sourceType": "module",
    "body": [
      {
        "type": "ImportDeclaration",
        "start": 0,
        "end": 26,
        "loc": {
          "start": {
            "line": 1,
            "column": 0
          },
          "end": {
            "line": 1,
            "column": 26
          }
        },
        "specifiers": [
          {
            "type": "ImportDefaultSpecifier",
            "start": 7,
            "end": 12,
            "loc": {
              "start": {
                "line": 1,
                "column": 7
              },
              "end": {
                "line": 1,
                "column": 12
              }
            },
            "local": {
              "type": "Identifier",
              "start": 7,
              "end": 12,
              "loc": {
                "start": {
                  "line": 1,
                  "column": 7
                },
                "end": {
                  "line": 1,
                  "column": 12
                },
                "identifierName": "React"
              },
              "name": "React"
            }
          }
        ],
        "source": {
          "type": "StringLiteral",
          "start": 18,
          "end": 25,
          "loc": {
            "start": {
              "line": 1,
              "column": 18
            },
            "end": {
              "line": 1,
              "column": 25
            }
          },
          "extra": {
            "rawValue": "react",
            "raw": "'react'"
          },
          "value": "react"
        }
      },
      {
        "type": "ImportDeclaration",
        "start": 27,
        "end": 62,
        "loc": {
          "start": {
            "line": 2,
            "column": 0
          },
          "end": {
            "line": 2,
            "column": 35
          }
        },
        "specifiers": [
          {
            "type": "ImportDefaultSpecifier",
            "start": 34,
            "end": 43,
            "loc": {
              "start": {
                "line": 2,
                "column": 7
              },
              "end": {
                "line": 2,
                "column": 16
              }
            },
            "local": {
              "type": "Identifier",
              "start": 34,
              "end": 43,
              "loc": {
                "start": {
                  "line": 2,
                  "column": 7
                },
                "end": {
                  "line": 2,
                  "column": 16
                },
                "identifierName": "PropTypes"
              },
              "name": "PropTypes"
            }
          }
        ],
        "source": {
          "type": "StringLiteral",
          "start": 49,
          "end": 61,
          "loc": {
            "start": {
              "line": 2,
              "column": 22
            },
            "end": {
              "line": 2,
              "column": 34
            }
          },
          "extra": {
            "rawValue": "prop-types",
            "raw": "'prop-types'"
          },
          "value": "prop-types"
        }
      },
      {
        "type": "ImportDeclaration",
        "start": 63,
        "end": 105,
        "loc": {
          "start": {
            "line": 3,
            "column": 0
          },
          "end": {
            "line": 3,
            "column": 42
          }
        },
        "specifiers": [
          {
            "type": "ImportDefaultSpecifier",
            "start": 70,
            "end": 80,
            "loc": {
              "start": {
                "line": 3,
                "column": 7
              },
              "end": {
                "line": 3,
                "column": 17
              }
            },
            "local": {
              "type": "Identifier",
              "start": 70,
              "end": 80,
              "loc": {
                "start": {
                  "line": 3,
                  "column": 7
                },
                "end": {
                  "line": 3,
                  "column": 17
                },
                "identifierName": "MediaQuery"
              },
              "name": "MediaQuery"
            }
          }
        ],
        "source": {
          "type": "StringLiteral",
          "start": 86,
          "end": 104,
          "loc": {
            "start": {
              "line": 3,
              "column": 23
            },
            "end": {
              "line": 3,
              "column": 41
            }
          },
          "extra": {
            "rawValue": "react-responsive",
            "raw": "'react-responsive'"
          },
          "value": "react-responsive"
        }
      },
      {
        "type": "ImportDeclaration",
        "start": 106,
        "end": 155,
        "loc": {
          "start": {
            "line": 4,
            "column": 0
          },
          "end": {
            "line": 4,
            "column": 49
          }
        },
        "specifiers": [
          {
            "type": "ImportDefaultSpecifier",
            "start": 113,
            "end": 125,
            "loc": {
              "start": {
                "line": 4,
                "column": 7
              },
              "end": {
                "line": 4,
                "column": 19
              }
            },
            "local": {
              "type": "Identifier",
              "start": 113,
              "end": 125,
              "loc": {
                "start": {
                  "line": 4,
                  "column": 7
                },
                "end": {
                  "line": 4,
                  "column": 19
                },
                "identifierName": "DEVICE_SIZES"
              },
              "name": "DEVICE_SIZES"
            }
          }
        ],
        "source": {
          "type": "StringLiteral",
          "start": 131,
          "end": 154,
          "loc": {
            "start": {
              "line": 4,
              "column": 25
            },
            "end": {
              "line": 4,
              "column": 48
            }
          },
          "extra": {
            "rawValue": "constants/deviceSizes",
            "raw": "'constants/deviceSizes'"
          },
          "value": "constants/deviceSizes"
        },
        "trailingComments": [
          {
            "type": "CommentBlock",
            "value": "*\n * Shows its children only when the size of the screen is at most the one of a\n * phone\n * @param {PropTypes.any.isRequired} children The children to show\n * @return {Object} The rendered object\n ",
            "start": 157,
            "end": 359,
            "loc": {
              "start": {
                "line": 6,
                "column": 0
              },
              "end": {
                "line": 11,
                "column": 3
              }
            }
          }
        ]
      },
      {
        "type": "Identifier",
        "start": 360,
        "end": 502,
        "loc": {
          "start": {
            "line": 12,
            "column": 0
          },
          "end": {
            "line": 19,
            "column": 1
          }
        },
        "id": {
          "type": "Identifier",
          "start": 369,
          "end": 378,
          "loc": {
            "start": {
              "line": 12,
              "column": 9
            },
            "end": {
              "line": 12,
              "column": 18
            },
            "identifierName": "PhoneSize"
          },
          "name": "PhoneSize",
          "leadingComments": null
        },
        "generator": false,
        "expression": false,
        "async": false,
        "params": [
          {
            "type": "ObjectPattern",
            "start": 379,
            "end": 391,
            "loc": {
              "start": {
                "line": 12,
                "column": 19
              },
              "end": {
                "line": 12,
                "column": 31
              }
            },
            "properties": [
              {
                "type": "ObjectProperty",
                "start": 381,
                "end": 389,
                "loc": {
                  "start": {
                    "line": 12,
                    "column": 21
                  },
                  "end": {
                    "line": 12,
                    "column": 29
                  }
                },
                "method": false,
                "shorthand": true,
                "computed": false,
                "key": {
                  "type": "Identifier",
                  "start": 381,
                  "end": 389,
                  "loc": {
                    "start": {
                      "line": 12,
                      "column": 21
                    },
                    "end": {
                      "line": 12,
                      "column": 29
                    },
                    "identifierName": "children"
                  },
                  "name": "children"
                },
                "value": {
                  "type": "Identifier",
                  "start": 381,
                  "end": 389,
                  "loc": {
                    "start": {
                      "line": 12,
                      "column": 21
                    },
                    "end": {
                      "line": 12,
                      "column": 29
                    },
                    "identifierName": "children"
                  },
                  "name": "children"
                },
                "extra": {
                  "shorthand": true
                }
              }
            ]
          }
        ],
        "body": {
          "type": "BlockStatement",
          "start": 393,
          "end": 502,
          "loc": {
            "start": {
              "line": 12,
              "column": 33
            },
            "end": {
              "line": 19,
              "column": 1
            }
          },
          "body": [
            {
              "type": "ReturnStatement",
              "start": 397,
              "end": 500,
              "loc": {
                "start": {
                  "line": 13,
                  "column": 2
                },
                "end": {
                  "line": 18,
                  "column": 4
                }
              },
              "argument": {
                "type": "JSXElement",
                "start": 410,
                "end": 495,
                "loc": {
                  "start": {
                    "line": 14,
                    "column": 4
                  },
                  "end": {
                    "line": 17,
                    "column": 17
                  }
                },
                "openingElement": {
                  "type": "JSXOpeningElement",
                  "start": 410,
                  "end": 452,
                  "loc": {
                    "start": {
                      "line": 14,
                      "column": 4
                    },
                    "end": {
                      "line": 14,
                      "column": 46
                    }
                  },
                  "attributes": [
                    {
                      "type": "JSXAttribute",
                      "start": 422,
                      "end": 451,
                      "loc": {
                        "start": {
                          "line": 14,
                          "column": 16
                        },
                        "end": {
                          "line": 14,
                          "column": 45
                        }
                      },
                      "name": {
                        "type": "JSXIdentifier",
                        "start": 422,
                        "end": 430,
                        "loc": {
                          "start": {
                            "line": 14,
                            "column": 16
                          },
                          "end": {
                            "line": 14,
                            "column": 24
                          }
                        },
                        "name": "maxWidth"
                      },
                      "value": {
                        "type": "JSXExpressionContainer",
                        "start": 431,
                        "end": 451,
                        "loc": {
                          "start": {
                            "line": 14,
                            "column": 25
                          },
                          "end": {
                            "line": 14,
                            "column": 45
                          }
                        },
                        "expression": {
                          "type": "MemberExpression",
                          "start": 432,
                          "end": 450,
                          "loc": {
                            "start": {
                              "line": 14,
                              "column": 26
                            },
                            "end": {
                              "line": 14,
                              "column": 44
                            }
                          },
                          "object": {
                            "type": "Identifier",
                            "start": 432,
                            "end": 444,
                            "loc": {
                              "start": {
                                "line": 14,
                                "column": 26
                              },
                              "end": {
                                "line": 14,
                                "column": 38
                              },
                              "identifierName": "DEVICE_SIZES"
                            },
                            "name": "DEVICE_SIZES"
                          },
                          "property": {
                            "type": "Identifier",
                            "start": 445,
                            "end": 450,
                            "loc": {
                              "start": {
                                "line": 14,
                                "column": 39
                              },
                              "end": {
                                "line": 14,
                                "column": 44
                              },
                              "identifierName": "PHONE"
                            },
                            "name": "PHONE"
                          },
                          "computed": false
                        }
                      }
                    }
                  ],
                  "name": {
                    "type": "JSXIdentifier",
                    "start": 411,
                    "end": 421,
                    "loc": {
                      "start": {
                        "line": 14,
                        "column": 5
                      },
                      "end": {
                        "line": 14,
                        "column": 15
                      }
                    },
                    "name": "MediaQuery"
                  },
                  "selfClosing": false
                },
                "closingElement": {
                  "type": "JSXClosingElement",
                  "start": 482,
                  "end": 495,
                  "loc": {
                    "start": {
                      "line": 17,
                      "column": 4
                    },
                    "end": {
                      "line": 17,
                      "column": 17
                    }
                  },
                  "name": {
                    "type": "JSXIdentifier",
                    "start": 484,
                    "end": 494,
                    "loc": {
                      "start": {
                        "line": 17,
                        "column": 6
                      },
                      "end": {
                        "line": 17,
                        "column": 16
                      }
                    },
                    "name": "MediaQuery"
                  }
                },
                "children": [
                  {
                    "type": "JSXText",
                    "start": 452,
                    "end": 459,
                    "loc": {
                      "start": {
                        "line": 14,
                        "column": 46
                      },
                      "end": {
                        "line": 15,
                        "column": 6
                      }
                    },
                    "extra": null,
                    "value": "\n      "
                  },
                  {
                    "type": "JSXExpressionContainer",
                    "start": 459,
                    "end": 469,
                    "loc": {
                      "start": {
                        "line": 15,
                        "column": 6
                      },
                      "end": {
                        "line": 15,
                        "column": 16
                      }
                    },
                    "expression": {
                      "type": "Identifier",
                      "start": 460,
                      "end": 468,
                      "loc": {
                        "start": {
                          "line": 15,
                          "column": 7
                        },
                        "end": {
                          "line": 15,
                          "column": 15
                        },
                        "identifierName": "children"
                      },
                      "name": "children"
                    }
                  },
                  {
                    "type": "JSXText",
                    "start": 469,
                    "end": 482,
                    "loc": {
                      "start": {
                        "line": 15,
                        "column": 16
                      },
                      "end": {
                        "line": 17,
                        "column": 4
                      }
                    },
                    "extra": null,
                    "value": "\n      ;\n    "
                  }
                ],
                "extra": {
                  "parenthesized": true,
                  "parenStart": 404
                }
              }
            }
          ],
          "directives": []
        },
        "leadingComments": [],
        "name": "_",
        "trailingComments": []
      },
      {
        "type": "ExpressionStatement",
        "start": 504,
        "end": 567,
        "loc": {
          "start": {
            "line": 21,
            "column": 0
          },
          "end": {
            "line": 23,
            "column": 2
          }
        },
        "expression": {
          "type": "AssignmentExpression",
          "start": 504,
          "end": 566,
          "loc": {
            "start": {
              "line": 21,
              "column": 0
            },
            "end": {
              "line": 23,
              "column": 1
            }
          },
          "operator": "=",
          "left": {
            "type": "MemberExpression",
            "start": 504,
            "end": 523,
            "loc": {
              "start": {
                "line": 21,
                "column": 0
              },
              "end": {
                "line": 21,
                "column": 19
              }
            },
            "object": {
              "type": "Identifier",
              "start": 504,
              "end": 513,
              "loc": {
                "start": {
                  "line": 21,
                  "column": 0
                },
                "end": {
                  "line": 21,
                  "column": 9
                },
                "identifierName": "PhoneSize"
              },
              "name": "PhoneSize"
            },
            "property": {
              "type": "Identifier",
              "start": 514,
              "end": 523,
              "loc": {
                "start": {
                  "line": 21,
                  "column": 10
                },
                "end": {
                  "line": 21,
                  "column": 19
                },
                "identifierName": "propTypes"
              },
              "name": "propTypes"
            },
            "computed": false
          },
          "right": {
            "type": "ObjectExpression",
            "start": 526,
            "end": 566,
            "loc": {
              "start": {
                "line": 21,
                "column": 22
              },
              "end": {
                "line": 23,
                "column": 1
              }
            },
            "properties": [
              {
                "type": "ObjectProperty",
                "start": 530,
                "end": 564,
                "loc": {
                  "start": {
                    "line": 22,
                    "column": 2
                  },
                  "end": {
                    "line": 22,
                    "column": 36
                  }
                },
                "method": false,
                "shorthand": false,
                "computed": false,
                "key": {
                  "type": "Identifier",
                  "start": 530,
                  "end": 538,
                  "loc": {
                    "start": {
                      "line": 22,
                      "column": 2
                    },
                    "end": {
                      "line": 22,
                      "column": 10
                    },
                    "identifierName": "children"
                  },
                  "name": "children"
                },
                "value": {
                  "type": "MemberExpression",
                  "start": 540,
                  "end": 564,
                  "loc": {
                    "start": {
                      "line": 22,
                      "column": 12
                    },
                    "end": {
                      "line": 22,
                      "column": 36
                    }
                  },
                  "object": {
                    "type": "MemberExpression",
                    "start": 540,
                    "end": 553,
                    "loc": {
                      "start": {
                        "line": 22,
                        "column": 12
                      },
                      "end": {
                        "line": 22,
                        "column": 25
                      }
                    },
                    "object": {
                      "type": "Identifier",
                      "start": 540,
                      "end": 549,
                      "loc": {
                        "start": {
                          "line": 22,
                          "column": 12
                        },
                        "end": {
                          "line": 22,
                          "column": 21
                        },
                        "identifierName": "PropTypes"
                      },
                      "name": "PropTypes"
                    },
                    "property": {
                      "type": "Identifier",
                      "start": 550,
                      "end": 553,
                      "loc": {
                        "start": {
                          "line": 22,
                          "column": 22
                        },
                        "end": {
                          "line": 22,
                          "column": 25
                        },
                        "identifierName": "any"
                      },
                      "name": "any"
                    },
                    "computed": false
                  },
                  "property": {
                    "type": "Identifier",
                    "start": 554,
                    "end": 564,
                    "loc": {
                      "start": {
                        "line": 22,
                        "column": 26
                      },
                      "end": {
                        "line": 22,
                        "column": 36
                      },
                      "identifierName": "isRequired"
                    },
                    "name": "isRequired"
                  },
                  "computed": false
                }
              }
            ]
          }
        }
      },
      {
        "type": "Identifier",
        "start": 569,
        "end": 594,
        "loc": {
          "start": {
            "line": 25,
            "column": 0
          },
          "end": {
            "line": 25,
            "column": 25
          }
        },
        "declaration": {
          "type": "Identifier",
          "start": 584,
          "end": 593,
          "loc": {
            "start": {
              "line": 25,
              "column": 15
            },
            "end": {
              "line": 25,
              "column": 24
            },
            "identifierName": "PhoneSize"
          },
          "name": "PhoneSize"
        },
        "name": "_",
        "leadingComments": [],
        "trailingComments": []
      },
      {
        "type": "ExportDefaultDeclaration",
        "start": 569,
        "end": 594,
        "loc": {
          "start": {
            "line": 25,
            "column": 0
          },
          "end": {
            "line": 25,
            "column": 25
          }
        },
        "declaration": {
          "type": "FunctionDeclaration",
          "start": 360,
          "end": 502,
          "loc": {
            "start": {
              "line": 12,
              "column": 0
            },
            "end": {
              "line": 19,
              "column": 1
            }
          },
          "id": {
            "type": "Identifier",
            "start": 369,
            "end": 378,
            "loc": {
              "start": {
                "line": 12,
                "column": 9
              },
              "end": {
                "line": 12,
                "column": 18
              },
              "identifierName": "PhoneSize"
            },
            "name": "PhoneSize",
            "leadingComments": null
          },
          "generator": false,
          "expression": false,
          "async": false,
          "params": [
            {
              "type": "ObjectPattern",
              "start": 379,
              "end": 391,
              "loc": {
                "start": {
                  "line": 12,
                  "column": 19
                },
                "end": {
                  "line": 12,
                  "column": 31
                }
              },
              "properties": [
                {
                  "type": "ObjectProperty",
                  "start": 381,
                  "end": 389,
                  "loc": {
                    "start": {
                      "line": 12,
                      "column": 21
                    },
                    "end": {
                      "line": 12,
                      "column": 29
                    }
                  },
                  "method": false,
                  "shorthand": true,
                  "computed": false,
                  "key": {
                    "type": "Identifier",
                    "start": 381,
                    "end": 389,
                    "loc": {
                      "start": {
                        "line": 12,
                        "column": 21
                      },
                      "end": {
                        "line": 12,
                        "column": 29
                      },
                      "identifierName": "children"
                    },
                    "name": "children"
                  },
                  "value": {
                    "type": "Identifier",
                    "start": 381,
                    "end": 389,
                    "loc": {
                      "start": {
                        "line": 12,
                        "column": 21
                      },
                      "end": {
                        "line": 12,
                        "column": 29
                      },
                      "identifierName": "children"
                    },
                    "name": "children"
                  },
                  "extra": {
                    "shorthand": true
                  }
                }
              ]
            }
          ],
          "body": {
            "type": "BlockStatement",
            "start": 393,
            "end": 502,
            "loc": {
              "start": {
                "line": 12,
                "column": 33
              },
              "end": {
                "line": 19,
                "column": 1
              }
            },
            "body": [
              {
                "type": "ReturnStatement",
                "start": 397,
                "end": 500,
                "loc": {
                  "start": {
                    "line": 13,
                    "column": 2
                  },
                  "end": {
                    "line": 18,
                    "column": 4
                  }
                },
                "argument": {
                  "type": "JSXElement",
                  "start": 410,
                  "end": 495,
                  "loc": {
                    "start": {
                      "line": 14,
                      "column": 4
                    },
                    "end": {
                      "line": 17,
                      "column": 17
                    }
                  },
                  "openingElement": {
                    "type": "JSXOpeningElement",
                    "start": 410,
                    "end": 452,
                    "loc": {
                      "start": {
                        "line": 14,
                        "column": 4
                      },
                      "end": {
                        "line": 14,
                        "column": 46
                      }
                    },
                    "attributes": [
                      {
                        "type": "JSXAttribute",
                        "start": 422,
                        "end": 451,
                        "loc": {
                          "start": {
                            "line": 14,
                            "column": 16
                          },
                          "end": {
                            "line": 14,
                            "column": 45
                          }
                        },
                        "name": {
                          "type": "JSXIdentifier",
                          "start": 422,
                          "end": 430,
                          "loc": {
                            "start": {
                              "line": 14,
                              "column": 16
                            },
                            "end": {
                              "line": 14,
                              "column": 24
                            }
                          },
                          "name": "maxWidth"
                        },
                        "value": {
                          "type": "JSXExpressionContainer",
                          "start": 431,
                          "end": 451,
                          "loc": {
                            "start": {
                              "line": 14,
                              "column": 25
                            },
                            "end": {
                              "line": 14,
                              "column": 45
                            }
                          },
                          "expression": {
                            "type": "MemberExpression",
                            "start": 432,
                            "end": 450,
                            "loc": {
                              "start": {
                                "line": 14,
                                "column": 26
                              },
                              "end": {
                                "line": 14,
                                "column": 44
                              }
                            },
                            "object": {
                              "type": "Identifier",
                              "start": 432,
                              "end": 444,
                              "loc": {
                                "start": {
                                  "line": 14,
                                  "column": 26
                                },
                                "end": {
                                  "line": 14,
                                  "column": 38
                                },
                                "identifierName": "DEVICE_SIZES"
                              },
                              "name": "DEVICE_SIZES"
                            },
                            "property": {
                              "type": "Identifier",
                              "start": 445,
                              "end": 450,
                              "loc": {
                                "start": {
                                  "line": 14,
                                  "column": 39
                                },
                                "end": {
                                  "line": 14,
                                  "column": 44
                                },
                                "identifierName": "PHONE"
                              },
                              "name": "PHONE"
                            },
                            "computed": false
                          }
                        }
                      }
                    ],
                    "name": {
                      "type": "JSXIdentifier",
                      "start": 411,
                      "end": 421,
                      "loc": {
                        "start": {
                          "line": 14,
                          "column": 5
                        },
                        "end": {
                          "line": 14,
                          "column": 15
                        }
                      },
                      "name": "MediaQuery"
                    },
                    "selfClosing": false
                  },
                  "closingElement": {
                    "type": "JSXClosingElement",
                    "start": 482,
                    "end": 495,
                    "loc": {
                      "start": {
                        "line": 17,
                        "column": 4
                      },
                      "end": {
                        "line": 17,
                        "column": 17
                      }
                    },
                    "name": {
                      "type": "JSXIdentifier",
                      "start": 484,
                      "end": 494,
                      "loc": {
                        "start": {
                          "line": 17,
                          "column": 6
                        },
                        "end": {
                          "line": 17,
                          "column": 16
                        }
                      },
                      "name": "MediaQuery"
                    }
                  },
                  "children": [
                    {
                      "type": "JSXText",
                      "start": 452,
                      "end": 459,
                      "loc": {
                        "start": {
                          "line": 14,
                          "column": 46
                        },
                        "end": {
                          "line": 15,
                          "column": 6
                        }
                      },
                      "extra": null,
                      "value": "\n      "
                    },
                    {
                      "type": "JSXExpressionContainer",
                      "start": 459,
                      "end": 469,
                      "loc": {
                        "start": {
                          "line": 15,
                          "column": 6
                        },
                        "end": {
                          "line": 15,
                          "column": 16
                        }
                      },
                      "expression": {
                        "type": "Identifier",
                        "start": 460,
                        "end": 468,
                        "loc": {
                          "start": {
                            "line": 15,
                            "column": 7
                          },
                          "end": {
                            "line": 15,
                            "column": 15
                          },
                          "identifierName": "children"
                        },
                        "name": "children"
                      }
                    },
                    {
                      "type": "JSXText",
                      "start": 469,
                      "end": 482,
                      "loc": {
                        "start": {
                          "line": 15,
                          "column": 16
                        },
                        "end": {
                          "line": 17,
                          "column": 4
                        }
                      },
                      "extra": null,
                      "value": "\n      ;\n    "
                    }
                  ],
                  "extra": {
                    "parenthesized": true,
                    "parenStart": 404
                  }
                }
              }
            ],
            "directives": []
          },
          "leadingComments": [
            {
              "type": "CommentBlock",
              "value": "*\n * Shows its children only when the size of the screen is at most the one of a\n * phone\n * @param {PropTypes.any.isRequired} children The children to show\n * @return {Object} The rendered object\n ",
              "start": 157,
              "end": 359,
              "loc": {
                "start": {
                  "line": 6,
                  "column": 0
                },
                "end": {
                  "line": 11,
                  "column": 3
                }
              }
            }
          ],
          "trailingComments": []
        }
      }
    ],
    "directives": []
  },
  "comments": [
    {
      "type": "CommentBlock",
      "value": "*\n * Shows its children only when the size of the screen is at most the one of a\n * phone\n * @param {PropTypes.any.isRequired} children The children to show\n * @return {Object} The rendered object\n ",
      "start": 157,
      "end": 359,
      "loc": {
        "start": {
          "line": 6,
          "column": 0
        },
        "end": {
          "line": 11,
          "column": 3
        }
      }
    }
  ],
  "tokens": [
    {
      "type": {
        "label": "import",
        "keyword": "import",
        "beforeExpr": false,
        "startsExpr": true,
        "rightAssociative": false,
        "isLoop": false,
        "isAssign": false,
        "prefix": false,
        "postfix": false,
        "binop": null,
        "updateContext": null
      },
      "value": "import",
      "start": 0,
      "end": 6,
      "loc": {
        "start": {
          "line": 1,
          "column": 0
        },
        "end": {
          "line": 1,
          "column": 6
        }
      }
    },
    {
      "type": {
        "label": "name",
        "beforeExpr": false,
        "startsExpr": true,
        "rightAssociative": false,
        "isLoop": false,
        "isAssign": false,
        "prefix": false,
        "postfix": false,
        "binop": null
      },
      "value": "React",
      "start": 7,
      "end": 12,
      "loc": {
        "start": {
          "line": 1,
          "column": 7
        },
        "end": {
          "line": 1,
          "column": 12
        }
      }
    },
    {
      "type": {
        "label": "name",
        "beforeExpr": false,
        "startsExpr": true,
        "rightAssociative": false,
        "isLoop": false,
        "isAssign": false,
        "prefix": false,
        "postfix": false,
        "binop": null
      },
      "value": "from",
      "start": 13,
      "end": 17,
      "loc": {
        "start": {
          "line": 1,
          "column": 13
        },
        "end": {
          "line": 1,
          "column": 17
        }
      }
    },
    {
      "type": {
        "label": "string",
        "beforeExpr": false,
        "startsExpr": true,
        "rightAssociative": false,
        "isLoop": false,
        "isAssign": false,
        "prefix": false,
        "postfix": false,
        "binop": null,
        "updateContext": null
      },
      "value": "react",
      "start": 18,
      "end": 25,
      "loc": {
        "start": {
          "line": 1,
          "column": 18
        },
        "end": {
          "line": 1,
          "column": 25
        }
      }
    },
    {
      "type": {
        "label": ";",
        "beforeExpr": true,
        "startsExpr": false,
        "rightAssociative": false,
        "isLoop": false,
        "isAssign": false,
        "prefix": false,
        "postfix": false,
        "binop": null,
        "updateContext": null
      },
      "start": 25,
      "end": 26,
      "loc": {
        "start": {
          "line": 1,
          "column": 25
        },
        "end": {
          "line": 1,
          "column": 26
        }
      }
    },
    {
      "type": {
        "label": "import",
        "keyword": "import",
        "beforeExpr": false,
        "startsExpr": true,
        "rightAssociative": false,
        "isLoop": false,
        "isAssign": false,
        "prefix": false,
        "postfix": false,
        "binop": null,
        "updateContext": null
      },
      "value": "import",
      "start": 27,
      "end": 33,
      "loc": {
        "start": {
          "line": 2,
          "column": 0
        },
        "end": {
          "line": 2,
          "column": 6
        }
      }
    },
    {
      "type": {
        "label": "name",
        "beforeExpr": false,
        "startsExpr": true,
        "rightAssociative": false,
        "isLoop": false,
        "isAssign": false,
        "prefix": false,
        "postfix": false,
        "binop": null
      },
      "value": "PropTypes",
      "start": 34,
      "end": 43,
      "loc": {
        "start": {
          "line": 2,
          "column": 7
        },
        "end": {
          "line": 2,
          "column": 16
        }
      }
    },
    {
      "type": {
        "label": "name",
        "beforeExpr": false,
        "startsExpr": true,
        "rightAssociative": false,
        "isLoop": false,
        "isAssign": false,
        "prefix": false,
        "postfix": false,
        "binop": null
      },
      "value": "from",
      "start": 44,
      "end": 48,
      "loc": {
        "start": {
          "line": 2,
          "column": 17
        },
        "end": {
          "line": 2,
          "column": 21
        }
      }
    },
    {
      "type": {
        "label": "string",
        "beforeExpr": false,
        "startsExpr": true,
        "rightAssociative": false,
        "isLoop": false,
        "isAssign": false,
        "prefix": false,
        "postfix": false,
        "binop": null,
        "updateContext": null
      },
      "value": "prop-types",
      "start": 49,
      "end": 61,
      "loc": {
        "start": {
          "line": 2,
          "column": 22
        },
        "end": {
          "line": 2,
          "column": 34
        }
      }
    },
    {
      "type": {
        "label": ";",
        "beforeExpr": true,
        "startsExpr": false,
        "rightAssociative": false,
        "isLoop": false,
        "isAssign": false,
        "prefix": false,
        "postfix": false,
        "binop": null,
        "updateContext": null
      },
      "start": 61,
      "end": 62,
      "loc": {
        "start": {
          "line": 2,
          "column": 34
        },
        "end": {
          "line": 2,
          "column": 35
        }
      }
    },
    {
      "type": {
        "label": "import",
        "keyword": "import",
        "beforeExpr": false,
        "startsExpr": true,
        "rightAssociative": false,
        "isLoop": false,
        "isAssign": false,
        "prefix": false,
        "postfix": false,
        "binop": null,
        "updateContext": null
      },
      "value": "import",
      "start": 63,
      "end": 69,
      "loc": {
        "start": {
          "line": 3,
          "column": 0
        },
        "end": {
          "line": 3,
          "column": 6
        }
      }
    },
    {
      "type": {
        "label": "name",
        "beforeExpr": false,
        "startsExpr": true,
        "rightAssociative": false,
        "isLoop": false,
        "isAssign": false,
        "prefix": false,
        "postfix": false,
        "binop": null
      },
      "value": "MediaQuery",
      "start": 70,
      "end": 80,
      "loc": {
        "start": {
          "line": 3,
          "column": 7
        },
        "end": {
          "line": 3,
          "column": 17
        }
      }
    },
    {
      "type": {
        "label": "name",
        "beforeExpr": false,
        "startsExpr": true,
        "rightAssociative": false,
        "isLoop": false,
        "isAssign": false,
        "prefix": false,
        "postfix": false,
        "binop": null
      },
      "value": "from",
      "start": 81,
      "end": 85,
      "loc": {
        "start": {
          "line": 3,
          "column": 18
        },
        "end": {
          "line": 3,
          "column": 22
        }
      }
    },
    {
      "type": {
        "label": "string",
        "beforeExpr": false,
        "startsExpr": true,
        "rightAssociative": false,
        "isLoop": false,
        "isAssign": false,
        "prefix": false,
        "postfix": false,
        "binop": null,
        "updateContext": null
      },
      "value": "react-responsive",
      "start": 86,
      "end": 104,
      "loc": {
        "start": {
          "line": 3,
          "column": 23
        },
        "end": {
          "line": 3,
          "column": 41
        }
      }
    },
    {
      "type": {
        "label": ";",
        "beforeExpr": true,
        "startsExpr": false,
        "rightAssociative": false,
        "isLoop": false,
        "isAssign": false,
        "prefix": false,
        "postfix": false,
        "binop": null,
        "updateContext": null
      },
      "start": 104,
      "end": 105,
      "loc": {
        "start": {
          "line": 3,
          "column": 41
        },
        "end": {
          "line": 3,
          "column": 42
        }
      }
    },
    {
      "type": {
        "label": "import",
        "keyword": "import",
        "beforeExpr": false,
        "startsExpr": true,
        "rightAssociative": false,
        "isLoop": false,
        "isAssign": false,
        "prefix": false,
        "postfix": false,
        "binop": null,
        "updateContext": null
      },
      "value": "import",
      "start": 106,
      "end": 112,
      "loc": {
        "start": {
          "line": 4,
          "column": 0
        },
        "end": {
          "line": 4,
          "column": 6
        }
      }
    },
    {
      "type": {
        "label": "name",
        "beforeExpr": false,
        "startsExpr": true,
        "rightAssociative": false,
        "isLoop": false,
        "isAssign": false,
        "prefix": false,
        "postfix": false,
        "binop": null
      },
      "value": "DEVICE_SIZES",
      "start": 113,
      "end": 125,
      "loc": {
        "start": {
          "line": 4,
          "column": 7
        },
        "end": {
          "line": 4,
          "column": 19
        }
      }
    },
    {
      "type": {
        "label": "name",
        "beforeExpr": false,
        "startsExpr": true,
        "rightAssociative": false,
        "isLoop": false,
        "isAssign": false,
        "prefix": false,
        "postfix": false,
        "binop": null
      },
      "value": "from",
      "start": 126,
      "end": 130,
      "loc": {
        "start": {
          "line": 4,
          "column": 20
        },
        "end": {
          "line": 4,
          "column": 24
        }
      }
    },
    {
      "type": {
        "label": "string",
        "beforeExpr": false,
        "startsExpr": true,
        "rightAssociative": false,
        "isLoop": false,
        "isAssign": false,
        "prefix": false,
        "postfix": false,
        "binop": null,
        "updateContext": null
      },
      "value": "constants/deviceSizes",
      "start": 131,
      "end": 154,
      "loc": {
        "start": {
          "line": 4,
          "column": 25
        },
        "end": {
          "line": 4,
          "column": 48
        }
      }
    },
    {
      "type": {
        "label": ";",
        "beforeExpr": true,
        "startsExpr": false,
        "rightAssociative": false,
        "isLoop": false,
        "isAssign": false,
        "prefix": false,
        "postfix": false,
        "binop": null,
        "updateContext": null
      },
      "start": 154,
      "end": 155,
      "loc": {
        "start": {
          "line": 4,
          "column": 48
        },
        "end": {
          "line": 4,
          "column": 49
        }
      }
    },
    {
      "type": "CommentBlock",
      "value": "*\n * Shows its children only when the size of the screen is at most the one of a\n * phone\n * @param {PropTypes.any.isRequired} children The children to show\n * @return {Object} The rendered object\n ",
      "start": 157,
      "end": 359,
      "loc": {
        "start": {
          "line": 6,
          "column": 0
        },
        "end": {
          "line": 11,
          "column": 3
        }
      }
    },
    {
      "type": {
        "label": "function",
        "keyword": "function",
        "beforeExpr": false,
        "startsExpr": true,
        "rightAssociative": false,
        "isLoop": false,
        "isAssign": false,
        "prefix": false,
        "postfix": false,
        "binop": null
      },
      "value": "function",
      "start": 360,
      "end": 368,
      "loc": {
        "start": {
          "line": 12,
          "column": 0
        },
        "end": {
          "line": 12,
          "column": 8
        }
      }
    },
    {
      "type": {
        "label": "name",
        "beforeExpr": false,
        "startsExpr": true,
        "rightAssociative": false,
        "isLoop": false,
        "isAssign": false,
        "prefix": false,
        "postfix": false,
        "binop": null
      },
      "value": "PhoneSize",
      "start": 369,
      "end": 378,
      "loc": {
        "start": {
          "line": 12,
          "column": 9
        },
        "end": {
          "line": 12,
          "column": 18
        }
      }
    },
    {
      "type": {
        "label": "(",
        "beforeExpr": true,
        "startsExpr": true,
        "rightAssociative": false,
        "isLoop": false,
        "isAssign": false,
        "prefix": false,
        "postfix": false,
        "binop": null
      },
      "start": 378,
      "end": 379,
      "loc": {
        "start": {
          "line": 12,
          "column": 18
        },
        "end": {
          "line": 12,
          "column": 19
        }
      }
    },
    {
      "type": {
        "label": "{",
        "beforeExpr": true,
        "startsExpr": true,
        "rightAssociative": false,
        "isLoop": false,
        "isAssign": false,
        "prefix": false,
        "postfix": false,
        "binop": null
      },
      "start": 379,
      "end": 380,
      "loc": {
        "start": {
          "line": 12,
          "column": 19
        },
        "end": {
          "line": 12,
          "column": 20
        }
      }
    },
    {
      "type": {
        "label": "name",
        "beforeExpr": false,
        "startsExpr": true,
        "rightAssociative": false,
        "isLoop": false,
        "isAssign": false,
        "prefix": false,
        "postfix": false,
        "binop": null
      },
      "value": "children",
      "start": 381,
      "end": 389,
      "loc": {
        "start": {
          "line": 12,
          "column": 21
        },
        "end": {
          "line": 12,
          "column": 29
        }
      }
    },
    {
      "type": {
        "label": "}",
        "beforeExpr": false,
        "startsExpr": false,
        "rightAssociative": false,
        "isLoop": false,
        "isAssign": false,
        "prefix": false,
        "postfix": false,
        "binop": null
      },
      "start": 390,
      "end": 391,
      "loc": {
        "start": {
          "line": 12,
          "column": 30
        },
        "end": {
          "line": 12,
          "column": 31
        }
      }
    },
    {
      "type": {
        "label": ")",
        "beforeExpr": false,
        "startsExpr": false,
        "rightAssociative": false,
        "isLoop": false,
        "isAssign": false,
        "prefix": false,
        "postfix": false,
        "binop": null
      },
      "start": 391,
      "end": 392,
      "loc": {
        "start": {
          "line": 12,
          "column": 31
        },
        "end": {
          "line": 12,
          "column": 32
        }
      }
    },
    {
      "type": {
        "label": "{",
        "beforeExpr": true,
        "startsExpr": true,
        "rightAssociative": false,
        "isLoop": false,
        "isAssign": false,
        "prefix": false,
        "postfix": false,
        "binop": null
      },
      "start": 393,
      "end": 394,
      "loc": {
        "start": {
          "line": 12,
          "column": 33
        },
        "end": {
          "line": 12,
          "column": 34
        }
      }
    },
    {
      "type": {
        "label": "return",
        "keyword": "return",
        "beforeExpr": true,
        "startsExpr": false,
        "rightAssociative": false,
        "isLoop": false,
        "isAssign": false,
        "prefix": false,
        "postfix": false,
        "binop": null,
        "updateContext": null
      },
      "value": "return",
      "start": 397,
      "end": 403,
      "loc": {
        "start": {
          "line": 13,
          "column": 2
        },
        "end": {
          "line": 13,
          "column": 8
        }
      }
    },
    {
      "type": {
        "label": "(",
        "beforeExpr": true,
        "startsExpr": true,
        "rightAssociative": false,
        "isLoop": false,
        "isAssign": false,
        "prefix": false,
        "postfix": false,
        "binop": null
      },
      "start": 404,
      "end": 405,
      "loc": {
        "start": {
          "line": 13,
          "column": 9
        },
        "end": {
          "line": 13,
          "column": 10
        }
      }
    },
    {
      "type": {
        "label": "jsxTagStart",
        "beforeExpr": false,
        "startsExpr": true,
        "rightAssociative": false,
        "isLoop": false,
        "isAssign": false,
        "prefix": false,
        "postfix": false,
        "binop": null
      },
      "start": 410,
      "end": 411,
      "loc": {
        "start": {
          "line": 14,
          "column": 4
        },
        "end": {
          "line": 14,
          "column": 5
        }
      }
    },
    {
      "type": {
        "label": "jsxName",
        "beforeExpr": false,
        "startsExpr": false,
        "rightAssociative": false,
        "isLoop": false,
        "isAssign": false,
        "prefix": false,
        "postfix": false,
        "binop": null,
        "updateContext": null
      },
      "value": "MediaQuery",
      "start": 411,
      "end": 421,
      "loc": {
        "start": {
          "line": 14,
          "column": 5
        },
        "end": {
          "line": 14,
          "column": 15
        }
      }
    },
    {
      "type": {
        "label": "jsxName",
        "beforeExpr": false,
        "startsExpr": false,
        "rightAssociative": false,
        "isLoop": false,
        "isAssign": false,
        "prefix": false,
        "postfix": false,
        "binop": null,
        "updateContext": null
      },
      "value": "maxWidth",
      "start": 422,
      "end": 430,
      "loc": {
        "start": {
          "line": 14,
          "column": 16
        },
        "end": {
          "line": 14,
          "column": 24
        }
      }
    },
    {
      "type": {
        "label": "=",
        "beforeExpr": true,
        "startsExpr": false,
        "rightAssociative": false,
        "isLoop": false,
        "isAssign": true,
        "prefix": false,
        "postfix": false,
        "binop": null,
        "updateContext": null
      },
      "value": "=",
      "start": 430,
      "end": 431,
      "loc": {
        "start": {
          "line": 14,
          "column": 24
        },
        "end": {
          "line": 14,
          "column": 25
        }
      }
    },
    {
      "type": {
        "label": "{",
        "beforeExpr": true,
        "startsExpr": true,
        "rightAssociative": false,
        "isLoop": false,
        "isAssign": false,
        "prefix": false,
        "postfix": false,
        "binop": null
      },
      "start": 431,
      "end": 432,
      "loc": {
        "start": {
          "line": 14,
          "column": 25
        },
        "end": {
          "line": 14,
          "column": 26
        }
      }
    },
    {
      "type": {
        "label": "name",
        "beforeExpr": false,
        "startsExpr": true,
        "rightAssociative": false,
        "isLoop": false,
        "isAssign": false,
        "prefix": false,
        "postfix": false,
        "binop": null
      },
      "value": "DEVICE_SIZES",
      "start": 432,
      "end": 444,
      "loc": {
        "start": {
          "line": 14,
          "column": 26
        },
        "end": {
          "line": 14,
          "column": 38
        }
      }
    },
    {
      "type": {
        "label": ".",
        "beforeExpr": false,
        "startsExpr": false,
        "rightAssociative": false,
        "isLoop": false,
        "isAssign": false,
        "prefix": false,
        "postfix": false,
        "binop": null,
        "updateContext": null
      },
      "start": 444,
      "end": 445,
      "loc": {
        "start": {
          "line": 14,
          "column": 38
        },
        "end": {
          "line": 14,
          "column": 39
        }
      }
    },
    {
      "type": {
        "label": "name",
        "beforeExpr": false,
        "startsExpr": true,
        "rightAssociative": false,
        "isLoop": false,
        "isAssign": false,
        "prefix": false,
        "postfix": false,
        "binop": null
      },
      "value": "PHONE",
      "start": 445,
      "end": 450,
      "loc": {
        "start": {
          "line": 14,
          "column": 39
        },
        "end": {
          "line": 14,
          "column": 44
        }
      }
    },
    {
      "type": {
        "label": "}",
        "beforeExpr": false,
        "startsExpr": false,
        "rightAssociative": false,
        "isLoop": false,
        "isAssign": false,
        "prefix": false,
        "postfix": false,
        "binop": null
      },
      "start": 450,
      "end": 451,
      "loc": {
        "start": {
          "line": 14,
          "column": 44
        },
        "end": {
          "line": 14,
          "column": 45
        }
      }
    },
    {
      "type": {
        "label": "jsxTagEnd",
        "beforeExpr": false,
        "startsExpr": false,
        "rightAssociative": false,
        "isLoop": false,
        "isAssign": false,
        "prefix": false,
        "postfix": false,
        "binop": null
      },
      "start": 451,
      "end": 452,
      "loc": {
        "start": {
          "line": 14,
          "column": 45
        },
        "end": {
          "line": 14,
          "column": 46
        }
      }
    },
    {
      "type": {
        "label": "jsxText",
        "beforeExpr": true,
        "startsExpr": false,
        "rightAssociative": false,
        "isLoop": false,
        "isAssign": false,
        "prefix": false,
        "postfix": false,
        "binop": null,
        "updateContext": null
      },
      "value": "\n      ",
      "start": 452,
      "end": 459,
      "loc": {
        "start": {
          "line": 14,
          "column": 46
        },
        "end": {
          "line": 15,
          "column": 6
        }
      }
    },
    {
      "type": {
        "label": "{",
        "beforeExpr": true,
        "startsExpr": true,
        "rightAssociative": false,
        "isLoop": false,
        "isAssign": false,
        "prefix": false,
        "postfix": false,
        "binop": null
      },
      "start": 459,
      "end": 460,
      "loc": {
        "start": {
          "line": 15,
          "column": 6
        },
        "end": {
          "line": 15,
          "column": 7
        }
      }
    },
    {
      "type": {
        "label": "name",
        "beforeExpr": false,
        "startsExpr": true,
        "rightAssociative": false,
        "isLoop": false,
        "isAssign": false,
        "prefix": false,
        "postfix": false,
        "binop": null
      },
      "value": "children",
      "start": 460,
      "end": 468,
      "loc": {
        "start": {
          "line": 15,
          "column": 7
        },
        "end": {
          "line": 15,
          "column": 15
        }
      }
    },
    {
      "type": {
        "label": "}",
        "beforeExpr": false,
        "startsExpr": false,
        "rightAssociative": false,
        "isLoop": false,
        "isAssign": false,
        "prefix": false,
        "postfix": false,
        "binop": null
      },
      "start": 468,
      "end": 469,
      "loc": {
        "start": {
          "line": 15,
          "column": 15
        },
        "end": {
          "line": 15,
          "column": 16
        }
      }
    },
    {
      "type": {
        "label": "jsxText",
        "beforeExpr": true,
        "startsExpr": false,
        "rightAssociative": false,
        "isLoop": false,
        "isAssign": false,
        "prefix": false,
        "postfix": false,
        "binop": null,
        "updateContext": null
      },
      "value": "\n      ;\n    ",
      "start": 469,
      "end": 482,
      "loc": {
        "start": {
          "line": 15,
          "column": 16
        },
        "end": {
          "line": 17,
          "column": 4
        }
      }
    },
    {
      "type": {
        "label": "jsxTagStart",
        "beforeExpr": false,
        "startsExpr": true,
        "rightAssociative": false,
        "isLoop": false,
        "isAssign": false,
        "prefix": false,
        "postfix": false,
        "binop": null
      },
      "start": 482,
      "end": 483,
      "loc": {
        "start": {
          "line": 17,
          "column": 4
        },
        "end": {
          "line": 17,
          "column": 5
        }
      }
    },
    {
      "type": {
        "label": "/",
        "beforeExpr": true,
        "startsExpr": false,
        "rightAssociative": false,
        "isLoop": false,
        "isAssign": false,
        "prefix": false,
        "postfix": false,
        "binop": 10,
        "updateContext": null
      },
      "value": "/",
      "start": 483,
      "end": 484,
      "loc": {
        "start": {
          "line": 17,
          "column": 5
        },
        "end": {
          "line": 17,
          "column": 6
        }
      }
    },
    {
      "type": {
        "label": "jsxName",
        "beforeExpr": false,
        "startsExpr": false,
        "rightAssociative": false,
        "isLoop": false,
        "isAssign": false,
        "prefix": false,
        "postfix": false,
        "binop": null,
        "updateContext": null
      },
      "value": "MediaQuery",
      "start": 484,
      "end": 494,
      "loc": {
        "start": {
          "line": 17,
          "column": 6
        },
        "end": {
          "line": 17,
          "column": 16
        }
      }
    },
    {
      "type": {
        "label": "jsxTagEnd",
        "beforeExpr": false,
        "startsExpr": false,
        "rightAssociative": false,
        "isLoop": false,
        "isAssign": false,
        "prefix": false,
        "postfix": false,
        "binop": null
      },
      "start": 494,
      "end": 495,
      "loc": {
        "start": {
          "line": 17,
          "column": 16
        },
        "end": {
          "line": 17,
          "column": 17
        }
      }
    },
    {
      "type": {
        "label": ")",
        "beforeExpr": false,
        "startsExpr": false,
        "rightAssociative": false,
        "isLoop": false,
        "isAssign": false,
        "prefix": false,
        "postfix": false,
        "binop": null
      },
      "start": 498,
      "end": 499,
      "loc": {
        "start": {
          "line": 18,
          "column": 2
        },
        "end": {
          "line": 18,
          "column": 3
        }
      }
    },
    {
      "type": {
        "label": ";",
        "beforeExpr": true,
        "startsExpr": false,
        "rightAssociative": false,
        "isLoop": false,
        "isAssign": false,
        "prefix": false,
        "postfix": false,
        "binop": null,
        "updateContext": null
      },
      "start": 499,
      "end": 500,
      "loc": {
        "start": {
          "line": 18,
          "column": 3
        },
        "end": {
          "line": 18,
          "column": 4
        }
      }
    },
    {
      "type": {
        "label": "}",
        "beforeExpr": false,
        "startsExpr": false,
        "rightAssociative": false,
        "isLoop": false,
        "isAssign": false,
        "prefix": false,
        "postfix": false,
        "binop": null
      },
      "start": 501,
      "end": 502,
      "loc": {
        "start": {
          "line": 19,
          "column": 0
        },
        "end": {
          "line": 19,
          "column": 1
        }
      }
    },
    {
      "type": {
        "label": "name",
        "beforeExpr": false,
        "startsExpr": true,
        "rightAssociative": false,
        "isLoop": false,
        "isAssign": false,
        "prefix": false,
        "postfix": false,
        "binop": null
      },
      "value": "PhoneSize",
      "start": 504,
      "end": 513,
      "loc": {
        "start": {
          "line": 21,
          "column": 0
        },
        "end": {
          "line": 21,
          "column": 9
        }
      }
    },
    {
      "type": {
        "label": ".",
        "beforeExpr": false,
        "startsExpr": false,
        "rightAssociative": false,
        "isLoop": false,
        "isAssign": false,
        "prefix": false,
        "postfix": false,
        "binop": null,
        "updateContext": null
      },
      "start": 513,
      "end": 514,
      "loc": {
        "start": {
          "line": 21,
          "column": 9
        },
        "end": {
          "line": 21,
          "column": 10
        }
      }
    },
    {
      "type": {
        "label": "name",
        "beforeExpr": false,
        "startsExpr": true,
        "rightAssociative": false,
        "isLoop": false,
        "isAssign": false,
        "prefix": false,
        "postfix": false,
        "binop": null
      },
      "value": "propTypes",
      "start": 514,
      "end": 523,
      "loc": {
        "start": {
          "line": 21,
          "column": 10
        },
        "end": {
          "line": 21,
          "column": 19
        }
      }
    },
    {
      "type": {
        "label": "=",
        "beforeExpr": true,
        "startsExpr": false,
        "rightAssociative": false,
        "isLoop": false,
        "isAssign": true,
        "prefix": false,
        "postfix": false,
        "binop": null,
        "updateContext": null
      },
      "value": "=",
      "start": 524,
      "end": 525,
      "loc": {
        "start": {
          "line": 21,
          "column": 20
        },
        "end": {
          "line": 21,
          "column": 21
        }
      }
    },
    {
      "type": {
        "label": "{",
        "beforeExpr": true,
        "startsExpr": true,
        "rightAssociative": false,
        "isLoop": false,
        "isAssign": false,
        "prefix": false,
        "postfix": false,
        "binop": null
      },
      "start": 526,
      "end": 527,
      "loc": {
        "start": {
          "line": 21,
          "column": 22
        },
        "end": {
          "line": 21,
          "column": 23
        }
      }
    },
    {
      "type": {
        "label": "name",
        "beforeExpr": false,
        "startsExpr": true,
        "rightAssociative": false,
        "isLoop": false,
        "isAssign": false,
        "prefix": false,
        "postfix": false,
        "binop": null
      },
      "value": "children",
      "start": 530,
      "end": 538,
      "loc": {
        "start": {
          "line": 22,
          "column": 2
        },
        "end": {
          "line": 22,
          "column": 10
        }
      }
    },
    {
      "type": {
        "label": ":",
        "beforeExpr": true,
        "startsExpr": false,
        "rightAssociative": false,
        "isLoop": false,
        "isAssign": false,
        "prefix": false,
        "postfix": false,
        "binop": null,
        "updateContext": null
      },
      "start": 538,
      "end": 539,
      "loc": {
        "start": {
          "line": 22,
          "column": 10
        },
        "end": {
          "line": 22,
          "column": 11
        }
      }
    },
    {
      "type": {
        "label": "name",
        "beforeExpr": false,
        "startsExpr": true,
        "rightAssociative": false,
        "isLoop": false,
        "isAssign": false,
        "prefix": false,
        "postfix": false,
        "binop": null
      },
      "value": "PropTypes",
      "start": 540,
      "end": 549,
      "loc": {
        "start": {
          "line": 22,
          "column": 12
        },
        "end": {
          "line": 22,
          "column": 21
        }
      }
    },
    {
      "type": {
        "label": ".",
        "beforeExpr": false,
        "startsExpr": false,
        "rightAssociative": false,
        "isLoop": false,
        "isAssign": false,
        "prefix": false,
        "postfix": false,
        "binop": null,
        "updateContext": null
      },
      "start": 549,
      "end": 550,
      "loc": {
        "start": {
          "line": 22,
          "column": 21
        },
        "end": {
          "line": 22,
          "column": 22
        }
      }
    },
    {
      "type": {
        "label": "name",
        "beforeExpr": false,
        "startsExpr": true,
        "rightAssociative": false,
        "isLoop": false,
        "isAssign": false,
        "prefix": false,
        "postfix": false,
        "binop": null
      },
      "value": "any",
      "start": 550,
      "end": 553,
      "loc": {
        "start": {
          "line": 22,
          "column": 22
        },
        "end": {
          "line": 22,
          "column": 25
        }
      }
    },
    {
      "type": {
        "label": ".",
        "beforeExpr": false,
        "startsExpr": false,
        "rightAssociative": false,
        "isLoop": false,
        "isAssign": false,
        "prefix": false,
        "postfix": false,
        "binop": null,
        "updateContext": null
      },
      "start": 553,
      "end": 554,
      "loc": {
        "start": {
          "line": 22,
          "column": 25
        },
        "end": {
          "line": 22,
          "column": 26
        }
      }
    },
    {
      "type": {
        "label": "name",
        "beforeExpr": false,
        "startsExpr": true,
        "rightAssociative": false,
        "isLoop": false,
        "isAssign": false,
        "prefix": false,
        "postfix": false,
        "binop": null
      },
      "value": "isRequired",
      "start": 554,
      "end": 564,
      "loc": {
        "start": {
          "line": 22,
          "column": 26
        },
        "end": {
          "line": 22,
          "column": 36
        }
      }
    },
    {
      "type": {
        "label": "}",
        "beforeExpr": false,
        "startsExpr": false,
        "rightAssociative": false,
        "isLoop": false,
        "isAssign": false,
        "prefix": false,
        "postfix": false,
        "binop": null
      },
      "start": 565,
      "end": 566,
      "loc": {
        "start": {
          "line": 23,
          "column": 0
        },
        "end": {
          "line": 23,
          "column": 1
        }
      }
    },
    {
      "type": {
        "label": ";",
        "beforeExpr": true,
        "startsExpr": false,
        "rightAssociative": false,
        "isLoop": false,
        "isAssign": false,
        "prefix": false,
        "postfix": false,
        "binop": null,
        "updateContext": null
      },
      "start": 566,
      "end": 567,
      "loc": {
        "start": {
          "line": 23,
          "column": 1
        },
        "end": {
          "line": 23,
          "column": 2
        }
      }
    },
    {
      "type": {
        "label": "export",
        "keyword": "export",
        "beforeExpr": false,
        "startsExpr": false,
        "rightAssociative": false,
        "isLoop": false,
        "isAssign": false,
        "prefix": false,
        "postfix": false,
        "binop": null,
        "updateContext": null
      },
      "value": "export",
      "start": 569,
      "end": 575,
      "loc": {
        "start": {
          "line": 25,
          "column": 0
        },
        "end": {
          "line": 25,
          "column": 6
        }
      }
    },
    {
      "type": {
        "label": "default",
        "keyword": "default",
        "beforeExpr": true,
        "startsExpr": false,
        "rightAssociative": false,
        "isLoop": false,
        "isAssign": false,
        "prefix": false,
        "postfix": false,
        "binop": null,
        "updateContext": null
      },
      "value": "default",
      "start": 576,
      "end": 583,
      "loc": {
        "start": {
          "line": 25,
          "column": 7
        },
        "end": {
          "line": 25,
          "column": 14
        }
      }
    },
    {
      "type": {
        "label": "name",
        "beforeExpr": false,
        "startsExpr": true,
        "rightAssociative": false,
        "isLoop": false,
        "isAssign": false,
        "prefix": false,
        "postfix": false,
        "binop": null
      },
      "value": "PhoneSize",
      "start": 584,
      "end": 593,
      "loc": {
        "start": {
          "line": 25,
          "column": 15
        },
        "end": {
          "line": 25,
          "column": 24
        }
      }
    },
    {
      "type": {
        "label": ";",
        "beforeExpr": true,
        "startsExpr": false,
        "rightAssociative": false,
        "isLoop": false,
        "isAssign": false,
        "prefix": false,
        "postfix": false,
        "binop": null,
        "updateContext": null
      },
      "start": 593,
      "end": 594,
      "loc": {
        "start": {
          "line": 25,
          "column": 24
        },
        "end": {
          "line": 25,
          "column": 25
        }
      }
    },
    {
      "type": {
        "label": "eof",
        "beforeExpr": false,
        "startsExpr": false,
        "rightAssociative": false,
        "isLoop": false,
        "isAssign": false,
        "prefix": false,
        "postfix": false,
        "binop": null,
        "updateContext": null
      },
      "start": 595,
      "end": 595,
      "loc": {
        "start": {
          "line": 26,
          "column": 0
        },
        "end": {
          "line": 26,
          "column": 0
        }
      }
    }
  ]
}