{
  "type": "File",
  "start": 0,
  "end": 686,
  "loc": {
    "start": {
      "line": 1,
      "column": 0
    },
    "end": {
      "line": 29,
      "column": 0
    }
  },
  "program": {
    "type": "Program",
    "start": 0,
    "end": 686,
    "loc": {
      "start": {
        "line": 1,
        "column": 0
      },
      "end": {
        "line": 29,
        "column": 0
      }
    },
    "sourceType": "module",
    "body": [
      {
        "type": "ImportDeclaration",
        "start": 0,
        "end": 26,
        "loc": {
          "start": {
            "line": 1,
            "column": 0
          },
          "end": {
            "line": 1,
            "column": 26
          }
        },
        "specifiers": [
          {
            "type": "ImportDefaultSpecifier",
            "start": 7,
            "end": 12,
            "loc": {
              "start": {
                "line": 1,
                "column": 7
              },
              "end": {
                "line": 1,
                "column": 12
              }
            },
            "local": {
              "type": "Identifier",
              "start": 7,
              "end": 12,
              "loc": {
                "start": {
                  "line": 1,
                  "column": 7
                },
                "end": {
                  "line": 1,
                  "column": 12
                },
                "identifierName": "React"
              },
              "name": "React"
            }
          }
        ],
        "source": {
          "type": "StringLiteral",
          "start": 18,
          "end": 25,
          "loc": {
            "start": {
              "line": 1,
              "column": 18
            },
            "end": {
              "line": 1,
              "column": 25
            }
          },
          "extra": {
            "rawValue": "react",
            "raw": "'react'"
          },
          "value": "react"
        }
      },
      {
        "type": "ImportDeclaration",
        "start": 27,
        "end": 62,
        "loc": {
          "start": {
            "line": 2,
            "column": 0
          },
          "end": {
            "line": 2,
            "column": 35
          }
        },
        "specifiers": [
          {
            "type": "ImportDefaultSpecifier",
            "start": 34,
            "end": 43,
            "loc": {
              "start": {
                "line": 2,
                "column": 7
              },
              "end": {
                "line": 2,
                "column": 16
              }
            },
            "local": {
              "type": "Identifier",
              "start": 34,
              "end": 43,
              "loc": {
                "start": {
                  "line": 2,
                  "column": 7
                },
                "end": {
                  "line": 2,
                  "column": 16
                },
                "identifierName": "PropTypes"
              },
              "name": "PropTypes"
            }
          }
        ],
        "source": {
          "type": "StringLiteral",
          "start": 49,
          "end": 61,
          "loc": {
            "start": {
              "line": 2,
              "column": 22
            },
            "end": {
              "line": 2,
              "column": 34
            }
          },
          "extra": {
            "rawValue": "prop-types",
            "raw": "'prop-types'"
          },
          "value": "prop-types"
        }
      },
      {
        "type": "ImportDeclaration",
        "start": 63,
        "end": 105,
        "loc": {
          "start": {
            "line": 3,
            "column": 0
          },
          "end": {
            "line": 3,
            "column": 42
          }
        },
        "specifiers": [
          {
            "type": "ImportDefaultSpecifier",
            "start": 70,
            "end": 80,
            "loc": {
              "start": {
                "line": 3,
                "column": 7
              },
              "end": {
                "line": 3,
                "column": 17
              }
            },
            "local": {
              "type": "Identifier",
              "start": 70,
              "end": 80,
              "loc": {
                "start": {
                  "line": 3,
                  "column": 7
                },
                "end": {
                  "line": 3,
                  "column": 17
                },
                "identifierName": "MediaQuery"
              },
              "name": "MediaQuery"
            }
          }
        ],
        "source": {
          "type": "StringLiteral",
          "start": 86,
          "end": 104,
          "loc": {
            "start": {
              "line": 3,
              "column": 23
            },
            "end": {
              "line": 3,
              "column": 41
            }
          },
          "extra": {
            "rawValue": "react-responsive",
            "raw": "'react-responsive'"
          },
          "value": "react-responsive"
        }
      },
      {
        "type": "ImportDeclaration",
        "start": 106,
        "end": 155,
        "loc": {
          "start": {
            "line": 4,
            "column": 0
          },
          "end": {
            "line": 4,
            "column": 49
          }
        },
        "specifiers": [
          {
            "type": "ImportDefaultSpecifier",
            "start": 113,
            "end": 125,
            "loc": {
              "start": {
                "line": 4,
                "column": 7
              },
              "end": {
                "line": 4,
                "column": 19
              }
            },
            "local": {
              "type": "Identifier",
              "start": 113,
              "end": 125,
              "loc": {
                "start": {
                  "line": 4,
                  "column": 7
                },
                "end": {
                  "line": 4,
                  "column": 19
                },
                "identifierName": "DEVICE_SIZES"
              },
              "name": "DEVICE_SIZES"
            }
          }
        ],
        "source": {
          "type": "StringLiteral",
          "start": 131,
          "end": 154,
          "loc": {
            "start": {
              "line": 4,
              "column": 25
            },
            "end": {
              "line": 4,
              "column": 48
            }
          },
          "extra": {
            "rawValue": "constants/deviceSizes",
            "raw": "'constants/deviceSizes'"
          },
          "value": "constants/deviceSizes"
        },
        "trailingComments": [
          {
            "type": "CommentBlock",
            "value": "*\n * Shows its children only when the size of the screen is at least the one of a\n * mobile and at most the one of a desktop\n * @param {PropTypes.any.isRequired} children The children to show\n * @return {Object} The rendered object\n ",
            "start": 157,
            "end": 394,
            "loc": {
              "start": {
                "line": 6,
                "column": 0
              },
              "end": {
                "line": 11,
                "column": 3
              }
            }
          }
        ]
      },
      {
        "type": "Identifier",
        "start": 395,
        "end": 591,
        "loc": {
          "start": {
            "line": 12,
            "column": 0
          },
          "end": {
            "line": 22,
            "column": 1
          }
        },
        "id": {
          "type": "Identifier",
          "start": 404,
          "end": 414,
          "loc": {
            "start": {
              "line": 12,
              "column": 9
            },
            "end": {
              "line": 12,
              "column": 19
            },
            "identifierName": "TabletSize"
          },
          "name": "TabletSize",
          "leadingComments": null
        },
        "generator": false,
        "expression": false,
        "async": false,
        "params": [
          {
            "type": "ObjectPattern",
            "start": 415,
            "end": 427,
            "loc": {
              "start": {
                "line": 12,
                "column": 20
              },
              "end": {
                "line": 12,
                "column": 32
              }
            },
            "properties": [
              {
                "type": "ObjectProperty",
                "start": 417,
                "end": 425,
                "loc": {
                  "start": {
                    "line": 12,
                    "column": 22
                  },
                  "end": {
                    "line": 12,
                    "column": 30
                  }
                },
                "method": false,
                "shorthand": true,
                "computed": false,
                "key": {
                  "type": "Identifier",
                  "start": 417,
                  "end": 425,
                  "loc": {
                    "start": {
                      "line": 12,
                      "column": 22
                    },
                    "end": {
                      "line": 12,
                      "column": 30
                    },
                    "identifierName": "children"
                  },
                  "name": "children"
                },
                "value": {
                  "type": "Identifier",
                  "start": 417,
                  "end": 425,
                  "loc": {
                    "start": {
                      "line": 12,
                      "column": 22
                    },
                    "end": {
                      "line": 12,
                      "column": 30
                    },
                    "identifierName": "children"
                  },
                  "name": "children"
                },
                "extra": {
                  "shorthand": true
                }
              }
            ]
          }
        ],
        "body": {
          "type": "BlockStatement",
          "start": 429,
          "end": 591,
          "loc": {
            "start": {
              "line": 12,
              "column": 34
            },
            "end": {
              "line": 22,
              "column": 1
            }
          },
          "body": [
            {
              "type": "ReturnStatement",
              "start": 433,
              "end": 589,
              "loc": {
                "start": {
                  "line": 13,
                  "column": 2
                },
                "end": {
                  "line": 21,
                  "column": 4
                }
              },
              "argument": {
                "type": "JSXElement",
                "start": 446,
                "end": 584,
                "loc": {
                  "start": {
                    "line": 14,
                    "column": 4
                  },
                  "end": {
                    "line": 20,
                    "column": 17
                  }
                },
                "openingElement": {
                  "type": "JSXOpeningElement",
                  "start": 446,
                  "end": 541,
                  "loc": {
                    "start": {
                      "line": 14,
                      "column": 4
                    },
                    "end": {
                      "line": 17,
                      "column": 5
                    }
                  },
                  "attributes": [
                    {
                      "type": "JSXAttribute",
                      "start": 464,
                      "end": 497,
                      "loc": {
                        "start": {
                          "line": 15,
                          "column": 6
                        },
                        "end": {
                          "line": 15,
                          "column": 39
                        }
                      },
                      "name": {
                        "type": "JSXIdentifier",
                        "start": 464,
                        "end": 472,
                        "loc": {
                          "start": {
                            "line": 15,
                            "column": 6
                          },
                          "end": {
                            "line": 15,
                            "column": 14
                          }
                        },
                        "name": "minWidth"
                      },
                      "value": {
                        "type": "JSXExpressionContainer",
                        "start": 473,
                        "end": 497,
                        "loc": {
                          "start": {
                            "line": 15,
                            "column": 15
                          },
                          "end": {
                            "line": 15,
                            "column": 39
                          }
                        },
                        "expression": {
                          "type": "BinaryExpression",
                          "start": 474,
                          "end": 496,
                          "loc": {
                            "start": {
                              "line": 15,
                              "column": 16
                            },
                            "end": {
                              "line": 15,
                              "column": 38
                            }
                          },
                          "left": {
                            "type": "MemberExpression",
                            "start": 474,
                            "end": 492,
                            "loc": {
                              "start": {
                                "line": 15,
                                "column": 16
                              },
                              "end": {
                                "line": 15,
                                "column": 34
                              }
                            },
                            "object": {
                              "type": "Identifier",
                              "start": 474,
                              "end": 486,
                              "loc": {
                                "start": {
                                  "line": 15,
                                  "column": 16
                                },
                                "end": {
                                  "line": 15,
                                  "column": 28
                                },
                                "identifierName": "DEVICE_SIZES"
                              },
                              "name": "DEVICE_SIZES"
                            },
                            "property": {
                              "type": "Identifier",
                              "start": 487,
                              "end": 492,
                              "loc": {
                                "start": {
                                  "line": 15,
                                  "column": 29
                                },
                                "end": {
                                  "line": 15,
                                  "column": 34
                                },
                                "identifierName": "PHONE"
                              },
                              "name": "PHONE"
                            },
                            "computed": false
                          },
                          "operator": "+",
                          "right": {
                            "type": "NumericLiteral",
                            "start": 495,
                            "end": 496,
                            "loc": {
                              "start": {
                                "line": 15,
                                "column": 37
                              },
                              "end": {
                                "line": 15,
                                "column": 38
                              }
                            },
                            "extra": {
                              "rawValue": 1,
                              "raw": "1"
                            },
                            "value": 1
                          }
                        }
                      }
                    },
                    {
                      "type": "JSXAttribute",
                      "start": 504,
                      "end": 535,
                      "loc": {
                        "start": {
                          "line": 16,
                          "column": 6
                        },
                        "end": {
                          "line": 16,
                          "column": 37
                        }
                      },
                      "name": {
                        "type": "JSXIdentifier",
                        "start": 504,
                        "end": 512,
                        "loc": {
                          "start": {
                            "line": 16,
                            "column": 6
                          },
                          "end": {
                            "line": 16,
                            "column": 14
                          }
                        },
                        "name": "maxWidth"
                      },
                      "value": {
                        "type": "JSXExpressionContainer",
                        "start": 513,
                        "end": 535,
                        "loc": {
                          "start": {
                            "line": 16,
                            "column": 15
                          },
                          "end": {
                            "line": 16,
                            "column": 37
                          }
                        },
                        "expression": {
                          "type": "MemberExpression",
                          "start": 514,
                          "end": 534,
                          "loc": {
                            "start": {
                              "line": 16,
                              "column": 16
                            },
                            "end": {
                              "line": 16,
                              "column": 36
                            }
                          },
                          "object": {
                            "type": "Identifier",
                            "start": 514,
                            "end": 526,
                            "loc": {
                              "start": {
                                "line": 16,
                                "column": 16
                              },
                              "end": {
                                "line": 16,
                                "column": 28
                              },
                              "identifierName": "DEVICE_SIZES"
                            },
                            "name": "DEVICE_SIZES"
                          },
                          "property": {
                            "type": "Identifier",
                            "start": 527,
                            "end": 534,
                            "loc": {
                              "start": {
                                "line": 16,
                                "column": 29
                              },
                              "end": {
                                "line": 16,
                                "column": 36
                              },
                              "identifierName": "DESKTOP"
                            },
                            "name": "DESKTOP"
                          },
                          "computed": false
                        }
                      }
                    }
                  ],
                  "name": {
                    "type": "JSXIdentifier",
                    "start": 447,
                    "end": 457,
                    "loc": {
                      "start": {
                        "line": 14,
                        "column": 5
                      },
                      "end": {
                        "line": 14,
                        "column": 15
                      }
                    },
                    "name": "MediaQuery"
                  },
                  "selfClosing": false
                },
                "closingElement": {
                  "type": "JSXClosingElement",
                  "start": 571,
                  "end": 584,
                  "loc": {
                    "start": {
                      "line": 20,
                      "column": 4
                    },
                    "end": {
                      "line": 20,
                      "column": 17
                    }
                  },
                  "name": {
                    "type": "JSXIdentifier",
                    "start": 573,
                    "end": 583,
                    "loc": {
                      "start": {
                        "line": 20,
                        "column": 6
                      },
                      "end": {
                        "line": 20,
                        "column": 16
                      }
                    },
                    "name": "MediaQuery"
                  }
                },
                "children": [
                  {
                    "type": "JSXText",
                    "start": 541,
                    "end": 548,
                    "loc": {
                      "start": {
                        "line": 17,
                        "column": 5
                      },
                      "end": {
                        "line": 18,
                        "column": 6
                      }
                    },
                    "extra": null,
                    "value": "\n      "
                  },
                  {
                    "type": "JSXExpressionContainer",
                    "start": 548,
                    "end": 558,
                    "loc": {
                      "start": {
                        "line": 18,
                        "column": 6
                      },
                      "end": {
                        "line": 18,
                        "column": 16
                      }
                    },
                    "expression": {
                      "type": "Identifier",
                      "start": 549,
                      "end": 557,
                      "loc": {
                        "start": {
                          "line": 18,
                          "column": 7
                        },
                        "end": {
                          "line": 18,
                          "column": 15
                        },
                        "identifierName": "children"
                      },
                      "name": "children"
                    }
                  },
                  {
                    "type": "JSXText",
                    "start": 558,
                    "end": 571,
                    "loc": {
                      "start": {
                        "line": 18,
                        "column": 16
                      },
                      "end": {
                        "line": 20,
                        "column": 4
                      }
                    },
                    "extra": null,
                    "value": "\n      ;\n    "
                  }
                ],
                "extra": {
                  "parenthesized": true,
                  "parenStart": 440
                }
              }
            }
          ],
          "directives": []
        },
        "leadingComments": [],
        "name": "_",
        "trailingComments": []
      },
      {
        "type": "ExpressionStatement",
        "start": 593,
        "end": 657,
        "loc": {
          "start": {
            "line": 24,
            "column": 0
          },
          "end": {
            "line": 26,
            "column": 2
          }
        },
        "expression": {
          "type": "AssignmentExpression",
          "start": 593,
          "end": 656,
          "loc": {
            "start": {
              "line": 24,
              "column": 0
            },
            "end": {
              "line": 26,
              "column": 1
            }
          },
          "operator": "=",
          "left": {
            "type": "MemberExpression",
            "start": 593,
            "end": 613,
            "loc": {
              "start": {
                "line": 24,
                "column": 0
              },
              "end": {
                "line": 24,
                "column": 20
              }
            },
            "object": {
              "type": "Identifier",
              "start": 593,
              "end": 603,
              "loc": {
                "start": {
                  "line": 24,
                  "column": 0
                },
                "end": {
                  "line": 24,
                  "column": 10
                },
                "identifierName": "TabletSize"
              },
              "name": "TabletSize"
            },
            "property": {
              "type": "Identifier",
              "start": 604,
              "end": 613,
              "loc": {
                "start": {
                  "line": 24,
                  "column": 11
                },
                "end": {
                  "line": 24,
                  "column": 20
                },
                "identifierName": "propTypes"
              },
              "name": "propTypes"
            },
            "computed": false
          },
          "right": {
            "type": "ObjectExpression",
            "start": 616,
            "end": 656,
            "loc": {
              "start": {
                "line": 24,
                "column": 23
              },
              "end": {
                "line": 26,
                "column": 1
              }
            },
            "properties": [
              {
                "type": "ObjectProperty",
                "start": 620,
                "end": 654,
                "loc": {
                  "start": {
                    "line": 25,
                    "column": 2
                  },
                  "end": {
                    "line": 25,
                    "column": 36
                  }
                },
                "method": false,
                "shorthand": false,
                "computed": false,
                "key": {
                  "type": "Identifier",
                  "start": 620,
                  "end": 628,
                  "loc": {
                    "start": {
                      "line": 25,
                      "column": 2
                    },
                    "end": {
                      "line": 25,
                      "column": 10
                    },
                    "identifierName": "children"
                  },
                  "name": "children"
                },
                "value": {
                  "type": "MemberExpression",
                  "start": 630,
                  "end": 654,
                  "loc": {
                    "start": {
                      "line": 25,
                      "column": 12
                    },
                    "end": {
                      "line": 25,
                      "column": 36
                    }
                  },
                  "object": {
                    "type": "MemberExpression",
                    "start": 630,
                    "end": 643,
                    "loc": {
                      "start": {
                        "line": 25,
                        "column": 12
                      },
                      "end": {
                        "line": 25,
                        "column": 25
                      }
                    },
                    "object": {
                      "type": "Identifier",
                      "start": 630,
                      "end": 639,
                      "loc": {
                        "start": {
                          "line": 25,
                          "column": 12
                        },
                        "end": {
                          "line": 25,
                          "column": 21
                        },
                        "identifierName": "PropTypes"
                      },
                      "name": "PropTypes"
                    },
                    "property": {
                      "type": "Identifier",
                      "start": 640,
                      "end": 643,
                      "loc": {
                        "start": {
                          "line": 25,
                          "column": 22
                        },
                        "end": {
                          "line": 25,
                          "column": 25
                        },
                        "identifierName": "any"
                      },
                      "name": "any"
                    },
                    "computed": false
                  },
                  "property": {
                    "type": "Identifier",
                    "start": 644,
                    "end": 654,
                    "loc": {
                      "start": {
                        "line": 25,
                        "column": 26
                      },
                      "end": {
                        "line": 25,
                        "column": 36
                      },
                      "identifierName": "isRequired"
                    },
                    "name": "isRequired"
                  },
                  "computed": false
                }
              }
            ]
          }
        }
      },
      {
        "type": "Identifier",
        "start": 659,
        "end": 685,
        "loc": {
          "start": {
            "line": 28,
            "column": 0
          },
          "end": {
            "line": 28,
            "column": 26
          }
        },
        "declaration": {
          "type": "Identifier",
          "start": 674,
          "end": 684,
          "loc": {
            "start": {
              "line": 28,
              "column": 15
            },
            "end": {
              "line": 28,
              "column": 25
            },
            "identifierName": "TabletSize"
          },
          "name": "TabletSize"
        },
        "name": "_",
        "leadingComments": [],
        "trailingComments": []
      },
      {
        "type": "ExportDefaultDeclaration",
        "start": 659,
        "end": 685,
        "loc": {
          "start": {
            "line": 28,
            "column": 0
          },
          "end": {
            "line": 28,
            "column": 26
          }
        },
        "declaration": {
          "type": "FunctionDeclaration",
          "start": 395,
          "end": 591,
          "loc": {
            "start": {
              "line": 12,
              "column": 0
            },
            "end": {
              "line": 22,
              "column": 1
            }
          },
          "id": {
            "type": "Identifier",
            "start": 404,
            "end": 414,
            "loc": {
              "start": {
                "line": 12,
                "column": 9
              },
              "end": {
                "line": 12,
                "column": 19
              },
              "identifierName": "TabletSize"
            },
            "name": "TabletSize",
            "leadingComments": null
          },
          "generator": false,
          "expression": false,
          "async": false,
          "params": [
            {
              "type": "ObjectPattern",
              "start": 415,
              "end": 427,
              "loc": {
                "start": {
                  "line": 12,
                  "column": 20
                },
                "end": {
                  "line": 12,
                  "column": 32
                }
              },
              "properties": [
                {
                  "type": "ObjectProperty",
                  "start": 417,
                  "end": 425,
                  "loc": {
                    "start": {
                      "line": 12,
                      "column": 22
                    },
                    "end": {
                      "line": 12,
                      "column": 30
                    }
                  },
                  "method": false,
                  "shorthand": true,
                  "computed": false,
                  "key": {
                    "type": "Identifier",
                    "start": 417,
                    "end": 425,
                    "loc": {
                      "start": {
                        "line": 12,
                        "column": 22
                      },
                      "end": {
                        "line": 12,
                        "column": 30
                      },
                      "identifierName": "children"
                    },
                    "name": "children"
                  },
                  "value": {
                    "type": "Identifier",
                    "start": 417,
                    "end": 425,
                    "loc": {
                      "start": {
                        "line": 12,
                        "column": 22
                      },
                      "end": {
                        "line": 12,
                        "column": 30
                      },
                      "identifierName": "children"
                    },
                    "name": "children"
                  },
                  "extra": {
                    "shorthand": true
                  }
                }
              ]
            }
          ],
          "body": {
            "type": "BlockStatement",
            "start": 429,
            "end": 591,
            "loc": {
              "start": {
                "line": 12,
                "column": 34
              },
              "end": {
                "line": 22,
                "column": 1
              }
            },
            "body": [
              {
                "type": "ReturnStatement",
                "start": 433,
                "end": 589,
                "loc": {
                  "start": {
                    "line": 13,
                    "column": 2
                  },
                  "end": {
                    "line": 21,
                    "column": 4
                  }
                },
                "argument": {
                  "type": "JSXElement",
                  "start": 446,
                  "end": 584,
                  "loc": {
                    "start": {
                      "line": 14,
                      "column": 4
                    },
                    "end": {
                      "line": 20,
                      "column": 17
                    }
                  },
                  "openingElement": {
                    "type": "JSXOpeningElement",
                    "start": 446,
                    "end": 541,
                    "loc": {
                      "start": {
                        "line": 14,
                        "column": 4
                      },
                      "end": {
                        "line": 17,
                        "column": 5
                      }
                    },
                    "attributes": [
                      {
                        "type": "JSXAttribute",
                        "start": 464,
                        "end": 497,
                        "loc": {
                          "start": {
                            "line": 15,
                            "column": 6
                          },
                          "end": {
                            "line": 15,
                            "column": 39
                          }
                        },
                        "name": {
                          "type": "JSXIdentifier",
                          "start": 464,
                          "end": 472,
                          "loc": {
                            "start": {
                              "line": 15,
                              "column": 6
                            },
                            "end": {
                              "line": 15,
                              "column": 14
                            }
                          },
                          "name": "minWidth"
                        },
                        "value": {
                          "type": "JSXExpressionContainer",
                          "start": 473,
                          "end": 497,
                          "loc": {
                            "start": {
                              "line": 15,
                              "column": 15
                            },
                            "end": {
                              "line": 15,
                              "column": 39
                            }
                          },
                          "expression": {
                            "type": "BinaryExpression",
                            "start": 474,
                            "end": 496,
                            "loc": {
                              "start": {
                                "line": 15,
                                "column": 16
                              },
                              "end": {
                                "line": 15,
                                "column": 38
                              }
                            },
                            "left": {
                              "type": "MemberExpression",
                              "start": 474,
                              "end": 492,
                              "loc": {
                                "start": {
                                  "line": 15,
                                  "column": 16
                                },
                                "end": {
                                  "line": 15,
                                  "column": 34
                                }
                              },
                              "object": {
                                "type": "Identifier",
                                "start": 474,
                                "end": 486,
                                "loc": {
                                  "start": {
                                    "line": 15,
                                    "column": 16
                                  },
                                  "end": {
                                    "line": 15,
                                    "column": 28
                                  },
                                  "identifierName": "DEVICE_SIZES"
                                },
                                "name": "DEVICE_SIZES"
                              },
                              "property": {
                                "type": "Identifier",
                                "start": 487,
                                "end": 492,
                                "loc": {
                                  "start": {
                                    "line": 15,
                                    "column": 29
                                  },
                                  "end": {
                                    "line": 15,
                                    "column": 34
                                  },
                                  "identifierName": "PHONE"
                                },
                                "name": "PHONE"
                              },
                              "computed": false
                            },
                            "operator": "+",
                            "right": {
                              "type": "NumericLiteral",
                              "start": 495,
                              "end": 496,
                              "loc": {
                                "start": {
                                  "line": 15,
                                  "column": 37
                                },
                                "end": {
                                  "line": 15,
                                  "column": 38
                                }
                              },
                              "extra": {
                                "rawValue": 1,
                                "raw": "1"
                              },
                              "value": 1
                            }
                          }
                        }
                      },
                      {
                        "type": "JSXAttribute",
                        "start": 504,
                        "end": 535,
                        "loc": {
                          "start": {
                            "line": 16,
                            "column": 6
                          },
                          "end": {
                            "line": 16,
                            "column": 37
                          }
                        },
                        "name": {
                          "type": "JSXIdentifier",
                          "start": 504,
                          "end": 512,
                          "loc": {
                            "start": {
                              "line": 16,
                              "column": 6
                            },
                            "end": {
                              "line": 16,
                              "column": 14
                            }
                          },
                          "name": "maxWidth"
                        },
                        "value": {
                          "type": "JSXExpressionContainer",
                          "start": 513,
                          "end": 535,
                          "loc": {
                            "start": {
                              "line": 16,
                              "column": 15
                            },
                            "end": {
                              "line": 16,
                              "column": 37
                            }
                          },
                          "expression": {
                            "type": "MemberExpression",
                            "start": 514,
                            "end": 534,
                            "loc": {
                              "start": {
                                "line": 16,
                                "column": 16
                              },
                              "end": {
                                "line": 16,
                                "column": 36
                              }
                            },
                            "object": {
                              "type": "Identifier",
                              "start": 514,
                              "end": 526,
                              "loc": {
                                "start": {
                                  "line": 16,
                                  "column": 16
                                },
                                "end": {
                                  "line": 16,
                                  "column": 28
                                },
                                "identifierName": "DEVICE_SIZES"
                              },
                              "name": "DEVICE_SIZES"
                            },
                            "property": {
                              "type": "Identifier",
                              "start": 527,
                              "end": 534,
                              "loc": {
                                "start": {
                                  "line": 16,
                                  "column": 29
                                },
                                "end": {
                                  "line": 16,
                                  "column": 36
                                },
                                "identifierName": "DESKTOP"
                              },
                              "name": "DESKTOP"
                            },
                            "computed": false
                          }
                        }
                      }
                    ],
                    "name": {
                      "type": "JSXIdentifier",
                      "start": 447,
                      "end": 457,
                      "loc": {
                        "start": {
                          "line": 14,
                          "column": 5
                        },
                        "end": {
                          "line": 14,
                          "column": 15
                        }
                      },
                      "name": "MediaQuery"
                    },
                    "selfClosing": false
                  },
                  "closingElement": {
                    "type": "JSXClosingElement",
                    "start": 571,
                    "end": 584,
                    "loc": {
                      "start": {
                        "line": 20,
                        "column": 4
                      },
                      "end": {
                        "line": 20,
                        "column": 17
                      }
                    },
                    "name": {
                      "type": "JSXIdentifier",
                      "start": 573,
                      "end": 583,
                      "loc": {
                        "start": {
                          "line": 20,
                          "column": 6
                        },
                        "end": {
                          "line": 20,
                          "column": 16
                        }
                      },
                      "name": "MediaQuery"
                    }
                  },
                  "children": [
                    {
                      "type": "JSXText",
                      "start": 541,
                      "end": 548,
                      "loc": {
                        "start": {
                          "line": 17,
                          "column": 5
                        },
                        "end": {
                          "line": 18,
                          "column": 6
                        }
                      },
                      "extra": null,
                      "value": "\n      "
                    },
                    {
                      "type": "JSXExpressionContainer",
                      "start": 548,
                      "end": 558,
                      "loc": {
                        "start": {
                          "line": 18,
                          "column": 6
                        },
                        "end": {
                          "line": 18,
                          "column": 16
                        }
                      },
                      "expression": {
                        "type": "Identifier",
                        "start": 549,
                        "end": 557,
                        "loc": {
                          "start": {
                            "line": 18,
                            "column": 7
                          },
                          "end": {
                            "line": 18,
                            "column": 15
                          },
                          "identifierName": "children"
                        },
                        "name": "children"
                      }
                    },
                    {
                      "type": "JSXText",
                      "start": 558,
                      "end": 571,
                      "loc": {
                        "start": {
                          "line": 18,
                          "column": 16
                        },
                        "end": {
                          "line": 20,
                          "column": 4
                        }
                      },
                      "extra": null,
                      "value": "\n      ;\n    "
                    }
                  ],
                  "extra": {
                    "parenthesized": true,
                    "parenStart": 440
                  }
                }
              }
            ],
            "directives": []
          },
          "leadingComments": [
            {
              "type": "CommentBlock",
              "value": "*\n * Shows its children only when the size of the screen is at least the one of a\n * mobile and at most the one of a desktop\n * @param {PropTypes.any.isRequired} children The children to show\n * @return {Object} The rendered object\n ",
              "start": 157,
              "end": 394,
              "loc": {
                "start": {
                  "line": 6,
                  "column": 0
                },
                "end": {
                  "line": 11,
                  "column": 3
                }
              }
            }
          ],
          "trailingComments": []
        }
      }
    ],
    "directives": []
  },
  "comments": [
    {
      "type": "CommentBlock",
      "value": "*\n * Shows its children only when the size of the screen is at least the one of a\n * mobile and at most the one of a desktop\n * @param {PropTypes.any.isRequired} children The children to show\n * @return {Object} The rendered object\n ",
      "start": 157,
      "end": 394,
      "loc": {
        "start": {
          "line": 6,
          "column": 0
        },
        "end": {
          "line": 11,
          "column": 3
        }
      }
    }
  ],
  "tokens": [
    {
      "type": {
        "label": "import",
        "keyword": "import",
        "beforeExpr": false,
        "startsExpr": true,
        "rightAssociative": false,
        "isLoop": false,
        "isAssign": false,
        "prefix": false,
        "postfix": false,
        "binop": null,
        "updateContext": null
      },
      "value": "import",
      "start": 0,
      "end": 6,
      "loc": {
        "start": {
          "line": 1,
          "column": 0
        },
        "end": {
          "line": 1,
          "column": 6
        }
      }
    },
    {
      "type": {
        "label": "name",
        "beforeExpr": false,
        "startsExpr": true,
        "rightAssociative": false,
        "isLoop": false,
        "isAssign": false,
        "prefix": false,
        "postfix": false,
        "binop": null
      },
      "value": "React",
      "start": 7,
      "end": 12,
      "loc": {
        "start": {
          "line": 1,
          "column": 7
        },
        "end": {
          "line": 1,
          "column": 12
        }
      }
    },
    {
      "type": {
        "label": "name",
        "beforeExpr": false,
        "startsExpr": true,
        "rightAssociative": false,
        "isLoop": false,
        "isAssign": false,
        "prefix": false,
        "postfix": false,
        "binop": null
      },
      "value": "from",
      "start": 13,
      "end": 17,
      "loc": {
        "start": {
          "line": 1,
          "column": 13
        },
        "end": {
          "line": 1,
          "column": 17
        }
      }
    },
    {
      "type": {
        "label": "string",
        "beforeExpr": false,
        "startsExpr": true,
        "rightAssociative": false,
        "isLoop": false,
        "isAssign": false,
        "prefix": false,
        "postfix": false,
        "binop": null,
        "updateContext": null
      },
      "value": "react",
      "start": 18,
      "end": 25,
      "loc": {
        "start": {
          "line": 1,
          "column": 18
        },
        "end": {
          "line": 1,
          "column": 25
        }
      }
    },
    {
      "type": {
        "label": ";",
        "beforeExpr": true,
        "startsExpr": false,
        "rightAssociative": false,
        "isLoop": false,
        "isAssign": false,
        "prefix": false,
        "postfix": false,
        "binop": null,
        "updateContext": null
      },
      "start": 25,
      "end": 26,
      "loc": {
        "start": {
          "line": 1,
          "column": 25
        },
        "end": {
          "line": 1,
          "column": 26
        }
      }
    },
    {
      "type": {
        "label": "import",
        "keyword": "import",
        "beforeExpr": false,
        "startsExpr": true,
        "rightAssociative": false,
        "isLoop": false,
        "isAssign": false,
        "prefix": false,
        "postfix": false,
        "binop": null,
        "updateContext": null
      },
      "value": "import",
      "start": 27,
      "end": 33,
      "loc": {
        "start": {
          "line": 2,
          "column": 0
        },
        "end": {
          "line": 2,
          "column": 6
        }
      }
    },
    {
      "type": {
        "label": "name",
        "beforeExpr": false,
        "startsExpr": true,
        "rightAssociative": false,
        "isLoop": false,
        "isAssign": false,
        "prefix": false,
        "postfix": false,
        "binop": null
      },
      "value": "PropTypes",
      "start": 34,
      "end": 43,
      "loc": {
        "start": {
          "line": 2,
          "column": 7
        },
        "end": {
          "line": 2,
          "column": 16
        }
      }
    },
    {
      "type": {
        "label": "name",
        "beforeExpr": false,
        "startsExpr": true,
        "rightAssociative": false,
        "isLoop": false,
        "isAssign": false,
        "prefix": false,
        "postfix": false,
        "binop": null
      },
      "value": "from",
      "start": 44,
      "end": 48,
      "loc": {
        "start": {
          "line": 2,
          "column": 17
        },
        "end": {
          "line": 2,
          "column": 21
        }
      }
    },
    {
      "type": {
        "label": "string",
        "beforeExpr": false,
        "startsExpr": true,
        "rightAssociative": false,
        "isLoop": false,
        "isAssign": false,
        "prefix": false,
        "postfix": false,
        "binop": null,
        "updateContext": null
      },
      "value": "prop-types",
      "start": 49,
      "end": 61,
      "loc": {
        "start": {
          "line": 2,
          "column": 22
        },
        "end": {
          "line": 2,
          "column": 34
        }
      }
    },
    {
      "type": {
        "label": ";",
        "beforeExpr": true,
        "startsExpr": false,
        "rightAssociative": false,
        "isLoop": false,
        "isAssign": false,
        "prefix": false,
        "postfix": false,
        "binop": null,
        "updateContext": null
      },
      "start": 61,
      "end": 62,
      "loc": {
        "start": {
          "line": 2,
          "column": 34
        },
        "end": {
          "line": 2,
          "column": 35
        }
      }
    },
    {
      "type": {
        "label": "import",
        "keyword": "import",
        "beforeExpr": false,
        "startsExpr": true,
        "rightAssociative": false,
        "isLoop": false,
        "isAssign": false,
        "prefix": false,
        "postfix": false,
        "binop": null,
        "updateContext": null
      },
      "value": "import",
      "start": 63,
      "end": 69,
      "loc": {
        "start": {
          "line": 3,
          "column": 0
        },
        "end": {
          "line": 3,
          "column": 6
        }
      }
    },
    {
      "type": {
        "label": "name",
        "beforeExpr": false,
        "startsExpr": true,
        "rightAssociative": false,
        "isLoop": false,
        "isAssign": false,
        "prefix": false,
        "postfix": false,
        "binop": null
      },
      "value": "MediaQuery",
      "start": 70,
      "end": 80,
      "loc": {
        "start": {
          "line": 3,
          "column": 7
        },
        "end": {
          "line": 3,
          "column": 17
        }
      }
    },
    {
      "type": {
        "label": "name",
        "beforeExpr": false,
        "startsExpr": true,
        "rightAssociative": false,
        "isLoop": false,
        "isAssign": false,
        "prefix": false,
        "postfix": false,
        "binop": null
      },
      "value": "from",
      "start": 81,
      "end": 85,
      "loc": {
        "start": {
          "line": 3,
          "column": 18
        },
        "end": {
          "line": 3,
          "column": 22
        }
      }
    },
    {
      "type": {
        "label": "string",
        "beforeExpr": false,
        "startsExpr": true,
        "rightAssociative": false,
        "isLoop": false,
        "isAssign": false,
        "prefix": false,
        "postfix": false,
        "binop": null,
        "updateContext": null
      },
      "value": "react-responsive",
      "start": 86,
      "end": 104,
      "loc": {
        "start": {
          "line": 3,
          "column": 23
        },
        "end": {
          "line": 3,
          "column": 41
        }
      }
    },
    {
      "type": {
        "label": ";",
        "beforeExpr": true,
        "startsExpr": false,
        "rightAssociative": false,
        "isLoop": false,
        "isAssign": false,
        "prefix": false,
        "postfix": false,
        "binop": null,
        "updateContext": null
      },
      "start": 104,
      "end": 105,
      "loc": {
        "start": {
          "line": 3,
          "column": 41
        },
        "end": {
          "line": 3,
          "column": 42
        }
      }
    },
    {
      "type": {
        "label": "import",
        "keyword": "import",
        "beforeExpr": false,
        "startsExpr": true,
        "rightAssociative": false,
        "isLoop": false,
        "isAssign": false,
        "prefix": false,
        "postfix": false,
        "binop": null,
        "updateContext": null
      },
      "value": "import",
      "start": 106,
      "end": 112,
      "loc": {
        "start": {
          "line": 4,
          "column": 0
        },
        "end": {
          "line": 4,
          "column": 6
        }
      }
    },
    {
      "type": {
        "label": "name",
        "beforeExpr": false,
        "startsExpr": true,
        "rightAssociative": false,
        "isLoop": false,
        "isAssign": false,
        "prefix": false,
        "postfix": false,
        "binop": null
      },
      "value": "DEVICE_SIZES",
      "start": 113,
      "end": 125,
      "loc": {
        "start": {
          "line": 4,
          "column": 7
        },
        "end": {
          "line": 4,
          "column": 19
        }
      }
    },
    {
      "type": {
        "label": "name",
        "beforeExpr": false,
        "startsExpr": true,
        "rightAssociative": false,
        "isLoop": false,
        "isAssign": false,
        "prefix": false,
        "postfix": false,
        "binop": null
      },
      "value": "from",
      "start": 126,
      "end": 130,
      "loc": {
        "start": {
          "line": 4,
          "column": 20
        },
        "end": {
          "line": 4,
          "column": 24
        }
      }
    },
    {
      "type": {
        "label": "string",
        "beforeExpr": false,
        "startsExpr": true,
        "rightAssociative": false,
        "isLoop": false,
        "isAssign": false,
        "prefix": false,
        "postfix": false,
        "binop": null,
        "updateContext": null
      },
      "value": "constants/deviceSizes",
      "start": 131,
      "end": 154,
      "loc": {
        "start": {
          "line": 4,
          "column": 25
        },
        "end": {
          "line": 4,
          "column": 48
        }
      }
    },
    {
      "type": {
        "label": ";",
        "beforeExpr": true,
        "startsExpr": false,
        "rightAssociative": false,
        "isLoop": false,
        "isAssign": false,
        "prefix": false,
        "postfix": false,
        "binop": null,
        "updateContext": null
      },
      "start": 154,
      "end": 155,
      "loc": {
        "start": {
          "line": 4,
          "column": 48
        },
        "end": {
          "line": 4,
          "column": 49
        }
      }
    },
    {
      "type": "CommentBlock",
      "value": "*\n * Shows its children only when the size of the screen is at least the one of a\n * mobile and at most the one of a desktop\n * @param {PropTypes.any.isRequired} children The children to show\n * @return {Object} The rendered object\n ",
      "start": 157,
      "end": 394,
      "loc": {
        "start": {
          "line": 6,
          "column": 0
        },
        "end": {
          "line": 11,
          "column": 3
        }
      }
    },
    {
      "type": {
        "label": "function",
        "keyword": "function",
        "beforeExpr": false,
        "startsExpr": true,
        "rightAssociative": false,
        "isLoop": false,
        "isAssign": false,
        "prefix": false,
        "postfix": false,
        "binop": null
      },
      "value": "function",
      "start": 395,
      "end": 403,
      "loc": {
        "start": {
          "line": 12,
          "column": 0
        },
        "end": {
          "line": 12,
          "column": 8
        }
      }
    },
    {
      "type": {
        "label": "name",
        "beforeExpr": false,
        "startsExpr": true,
        "rightAssociative": false,
        "isLoop": false,
        "isAssign": false,
        "prefix": false,
        "postfix": false,
        "binop": null
      },
      "value": "TabletSize",
      "start": 404,
      "end": 414,
      "loc": {
        "start": {
          "line": 12,
          "column": 9
        },
        "end": {
          "line": 12,
          "column": 19
        }
      }
    },
    {
      "type": {
        "label": "(",
        "beforeExpr": true,
        "startsExpr": true,
        "rightAssociative": false,
        "isLoop": false,
        "isAssign": false,
        "prefix": false,
        "postfix": false,
        "binop": null
      },
      "start": 414,
      "end": 415,
      "loc": {
        "start": {
          "line": 12,
          "column": 19
        },
        "end": {
          "line": 12,
          "column": 20
        }
      }
    },
    {
      "type": {
        "label": "{",
        "beforeExpr": true,
        "startsExpr": true,
        "rightAssociative": false,
        "isLoop": false,
        "isAssign": false,
        "prefix": false,
        "postfix": false,
        "binop": null
      },
      "start": 415,
      "end": 416,
      "loc": {
        "start": {
          "line": 12,
          "column": 20
        },
        "end": {
          "line": 12,
          "column": 21
        }
      }
    },
    {
      "type": {
        "label": "name",
        "beforeExpr": false,
        "startsExpr": true,
        "rightAssociative": false,
        "isLoop": false,
        "isAssign": false,
        "prefix": false,
        "postfix": false,
        "binop": null
      },
      "value": "children",
      "start": 417,
      "end": 425,
      "loc": {
        "start": {
          "line": 12,
          "column": 22
        },
        "end": {
          "line": 12,
          "column": 30
        }
      }
    },
    {
      "type": {
        "label": "}",
        "beforeExpr": false,
        "startsExpr": false,
        "rightAssociative": false,
        "isLoop": false,
        "isAssign": false,
        "prefix": false,
        "postfix": false,
        "binop": null
      },
      "start": 426,
      "end": 427,
      "loc": {
        "start": {
          "line": 12,
          "column": 31
        },
        "end": {
          "line": 12,
          "column": 32
        }
      }
    },
    {
      "type": {
        "label": ")",
        "beforeExpr": false,
        "startsExpr": false,
        "rightAssociative": false,
        "isLoop": false,
        "isAssign": false,
        "prefix": false,
        "postfix": false,
        "binop": null
      },
      "start": 427,
      "end": 428,
      "loc": {
        "start": {
          "line": 12,
          "column": 32
        },
        "end": {
          "line": 12,
          "column": 33
        }
      }
    },
    {
      "type": {
        "label": "{",
        "beforeExpr": true,
        "startsExpr": true,
        "rightAssociative": false,
        "isLoop": false,
        "isAssign": false,
        "prefix": false,
        "postfix": false,
        "binop": null
      },
      "start": 429,
      "end": 430,
      "loc": {
        "start": {
          "line": 12,
          "column": 34
        },
        "end": {
          "line": 12,
          "column": 35
        }
      }
    },
    {
      "type": {
        "label": "return",
        "keyword": "return",
        "beforeExpr": true,
        "startsExpr": false,
        "rightAssociative": false,
        "isLoop": false,
        "isAssign": false,
        "prefix": false,
        "postfix": false,
        "binop": null,
        "updateContext": null
      },
      "value": "return",
      "start": 433,
      "end": 439,
      "loc": {
        "start": {
          "line": 13,
          "column": 2
        },
        "end": {
          "line": 13,
          "column": 8
        }
      }
    },
    {
      "type": {
        "label": "(",
        "beforeExpr": true,
        "startsExpr": true,
        "rightAssociative": false,
        "isLoop": false,
        "isAssign": false,
        "prefix": false,
        "postfix": false,
        "binop": null
      },
      "start": 440,
      "end": 441,
      "loc": {
        "start": {
          "line": 13,
          "column": 9
        },
        "end": {
          "line": 13,
          "column": 10
        }
      }
    },
    {
      "type": {
        "label": "jsxTagStart",
        "beforeExpr": false,
        "startsExpr": true,
        "rightAssociative": false,
        "isLoop": false,
        "isAssign": false,
        "prefix": false,
        "postfix": false,
        "binop": null
      },
      "start": 446,
      "end": 447,
      "loc": {
        "start": {
          "line": 14,
          "column": 4
        },
        "end": {
          "line": 14,
          "column": 5
        }
      }
    },
    {
      "type": {
        "label": "jsxName",
        "beforeExpr": false,
        "startsExpr": false,
        "rightAssociative": false,
        "isLoop": false,
        "isAssign": false,
        "prefix": false,
        "postfix": false,
        "binop": null,
        "updateContext": null
      },
      "value": "MediaQuery",
      "start": 447,
      "end": 457,
      "loc": {
        "start": {
          "line": 14,
          "column": 5
        },
        "end": {
          "line": 14,
          "column": 15
        }
      }
    },
    {
      "type": {
        "label": "jsxName",
        "beforeExpr": false,
        "startsExpr": false,
        "rightAssociative": false,
        "isLoop": false,
        "isAssign": false,
        "prefix": false,
        "postfix": false,
        "binop": null,
        "updateContext": null
      },
      "value": "minWidth",
      "start": 464,
      "end": 472,
      "loc": {
        "start": {
          "line": 15,
          "column": 6
        },
        "end": {
          "line": 15,
          "column": 14
        }
      }
    },
    {
      "type": {
        "label": "=",
        "beforeExpr": true,
        "startsExpr": false,
        "rightAssociative": false,
        "isLoop": false,
        "isAssign": true,
        "prefix": false,
        "postfix": false,
        "binop": null,
        "updateContext": null
      },
      "value": "=",
      "start": 472,
      "end": 473,
      "loc": {
        "start": {
          "line": 15,
          "column": 14
        },
        "end": {
          "line": 15,
          "column": 15
        }
      }
    },
    {
      "type": {
        "label": "{",
        "beforeExpr": true,
        "startsExpr": true,
        "rightAssociative": false,
        "isLoop": false,
        "isAssign": false,
        "prefix": false,
        "postfix": false,
        "binop": null
      },
      "start": 473,
      "end": 474,
      "loc": {
        "start": {
          "line": 15,
          "column": 15
        },
        "end": {
          "line": 15,
          "column": 16
        }
      }
    },
    {
      "type": {
        "label": "name",
        "beforeExpr": false,
        "startsExpr": true,
        "rightAssociative": false,
        "isLoop": false,
        "isAssign": false,
        "prefix": false,
        "postfix": false,
        "binop": null
      },
      "value": "DEVICE_SIZES",
      "start": 474,
      "end": 486,
      "loc": {
        "start": {
          "line": 15,
          "column": 16
        },
        "end": {
          "line": 15,
          "column": 28
        }
      }
    },
    {
      "type": {
        "label": ".",
        "beforeExpr": false,
        "startsExpr": false,
        "rightAssociative": false,
        "isLoop": false,
        "isAssign": false,
        "prefix": false,
        "postfix": false,
        "binop": null,
        "updateContext": null
      },
      "start": 486,
      "end": 487,
      "loc": {
        "start": {
          "line": 15,
          "column": 28
        },
        "end": {
          "line": 15,
          "column": 29
        }
      }
    },
    {
      "type": {
        "label": "name",
        "beforeExpr": false,
        "startsExpr": true,
        "rightAssociative": false,
        "isLoop": false,
        "isAssign": false,
        "prefix": false,
        "postfix": false,
        "binop": null
      },
      "value": "PHONE",
      "start": 487,
      "end": 492,
      "loc": {
        "start": {
          "line": 15,
          "column": 29
        },
        "end": {
          "line": 15,
          "column": 34
        }
      }
    },
    {
      "type": {
        "label": "+/-",
        "beforeExpr": true,
        "startsExpr": true,
        "rightAssociative": false,
        "isLoop": false,
        "isAssign": false,
        "prefix": true,
        "postfix": false,
        "binop": 9,
        "updateContext": null
      },
      "value": "+",
      "start": 493,
      "end": 494,
      "loc": {
        "start": {
          "line": 15,
          "column": 35
        },
        "end": {
          "line": 15,
          "column": 36
        }
      }
    },
    {
      "type": {
        "label": "num",
        "beforeExpr": false,
        "startsExpr": true,
        "rightAssociative": false,
        "isLoop": false,
        "isAssign": false,
        "prefix": false,
        "postfix": false,
        "binop": null,
        "updateContext": null
      },
      "value": 1,
      "start": 495,
      "end": 496,
      "loc": {
        "start": {
          "line": 15,
          "column": 37
        },
        "end": {
          "line": 15,
          "column": 38
        }
      }
    },
    {
      "type": {
        "label": "}",
        "beforeExpr": false,
        "startsExpr": false,
        "rightAssociative": false,
        "isLoop": false,
        "isAssign": false,
        "prefix": false,
        "postfix": false,
        "binop": null
      },
      "start": 496,
      "end": 497,
      "loc": {
        "start": {
          "line": 15,
          "column": 38
        },
        "end": {
          "line": 15,
          "column": 39
        }
      }
    },
    {
      "type": {
        "label": "jsxName",
        "beforeExpr": false,
        "startsExpr": false,
        "rightAssociative": false,
        "isLoop": false,
        "isAssign": false,
        "prefix": false,
        "postfix": false,
        "binop": null,
        "updateContext": null
      },
      "value": "maxWidth",
      "start": 504,
      "end": 512,
      "loc": {
        "start": {
          "line": 16,
          "column": 6
        },
        "end": {
          "line": 16,
          "column": 14
        }
      }
    },
    {
      "type": {
        "label": "=",
        "beforeExpr": true,
        "startsExpr": false,
        "rightAssociative": false,
        "isLoop": false,
        "isAssign": true,
        "prefix": false,
        "postfix": false,
        "binop": null,
        "updateContext": null
      },
      "value": "=",
      "start": 512,
      "end": 513,
      "loc": {
        "start": {
          "line": 16,
          "column": 14
        },
        "end": {
          "line": 16,
          "column": 15
        }
      }
    },
    {
      "type": {
        "label": "{",
        "beforeExpr": true,
        "startsExpr": true,
        "rightAssociative": false,
        "isLoop": false,
        "isAssign": false,
        "prefix": false,
        "postfix": false,
        "binop": null
      },
      "start": 513,
      "end": 514,
      "loc": {
        "start": {
          "line": 16,
          "column": 15
        },
        "end": {
          "line": 16,
          "column": 16
        }
      }
    },
    {
      "type": {
        "label": "name",
        "beforeExpr": false,
        "startsExpr": true,
        "rightAssociative": false,
        "isLoop": false,
        "isAssign": false,
        "prefix": false,
        "postfix": false,
        "binop": null
      },
      "value": "DEVICE_SIZES",
      "start": 514,
      "end": 526,
      "loc": {
        "start": {
          "line": 16,
          "column": 16
        },
        "end": {
          "line": 16,
          "column": 28
        }
      }
    },
    {
      "type": {
        "label": ".",
        "beforeExpr": false,
        "startsExpr": false,
        "rightAssociative": false,
        "isLoop": false,
        "isAssign": false,
        "prefix": false,
        "postfix": false,
        "binop": null,
        "updateContext": null
      },
      "start": 526,
      "end": 527,
      "loc": {
        "start": {
          "line": 16,
          "column": 28
        },
        "end": {
          "line": 16,
          "column": 29
        }
      }
    },
    {
      "type": {
        "label": "name",
        "beforeExpr": false,
        "startsExpr": true,
        "rightAssociative": false,
        "isLoop": false,
        "isAssign": false,
        "prefix": false,
        "postfix": false,
        "binop": null
      },
      "value": "DESKTOP",
      "start": 527,
      "end": 534,
      "loc": {
        "start": {
          "line": 16,
          "column": 29
        },
        "end": {
          "line": 16,
          "column": 36
        }
      }
    },
    {
      "type": {
        "label": "}",
        "beforeExpr": false,
        "startsExpr": false,
        "rightAssociative": false,
        "isLoop": false,
        "isAssign": false,
        "prefix": false,
        "postfix": false,
        "binop": null
      },
      "start": 534,
      "end": 535,
      "loc": {
        "start": {
          "line": 16,
          "column": 36
        },
        "end": {
          "line": 16,
          "column": 37
        }
      }
    },
    {
      "type": {
        "label": "jsxTagEnd",
        "beforeExpr": false,
        "startsExpr": false,
        "rightAssociative": false,
        "isLoop": false,
        "isAssign": false,
        "prefix": false,
        "postfix": false,
        "binop": null
      },
      "start": 540,
      "end": 541,
      "loc": {
        "start": {
          "line": 17,
          "column": 4
        },
        "end": {
          "line": 17,
          "column": 5
        }
      }
    },
    {
      "type": {
        "label": "jsxText",
        "beforeExpr": true,
        "startsExpr": false,
        "rightAssociative": false,
        "isLoop": false,
        "isAssign": false,
        "prefix": false,
        "postfix": false,
        "binop": null,
        "updateContext": null
      },
      "value": "\n      ",
      "start": 541,
      "end": 548,
      "loc": {
        "start": {
          "line": 17,
          "column": 5
        },
        "end": {
          "line": 18,
          "column": 6
        }
      }
    },
    {
      "type": {
        "label": "{",
        "beforeExpr": true,
        "startsExpr": true,
        "rightAssociative": false,
        "isLoop": false,
        "isAssign": false,
        "prefix": false,
        "postfix": false,
        "binop": null
      },
      "start": 548,
      "end": 549,
      "loc": {
        "start": {
          "line": 18,
          "column": 6
        },
        "end": {
          "line": 18,
          "column": 7
        }
      }
    },
    {
      "type": {
        "label": "name",
        "beforeExpr": false,
        "startsExpr": true,
        "rightAssociative": false,
        "isLoop": false,
        "isAssign": false,
        "prefix": false,
        "postfix": false,
        "binop": null
      },
      "value": "children",
      "start": 549,
      "end": 557,
      "loc": {
        "start": {
          "line": 18,
          "column": 7
        },
        "end": {
          "line": 18,
          "column": 15
        }
      }
    },
    {
      "type": {
        "label": "}",
        "beforeExpr": false,
        "startsExpr": false,
        "rightAssociative": false,
        "isLoop": false,
        "isAssign": false,
        "prefix": false,
        "postfix": false,
        "binop": null
      },
      "start": 557,
      "end": 558,
      "loc": {
        "start": {
          "line": 18,
          "column": 15
        },
        "end": {
          "line": 18,
          "column": 16
        }
      }
    },
    {
      "type": {
        "label": "jsxText",
        "beforeExpr": true,
        "startsExpr": false,
        "rightAssociative": false,
        "isLoop": false,
        "isAssign": false,
        "prefix": false,
        "postfix": false,
        "binop": null,
        "updateContext": null
      },
      "value": "\n      ;\n    ",
      "start": 558,
      "end": 571,
      "loc": {
        "start": {
          "line": 18,
          "column": 16
        },
        "end": {
          "line": 20,
          "column": 4
        }
      }
    },
    {
      "type": {
        "label": "jsxTagStart",
        "beforeExpr": false,
        "startsExpr": true,
        "rightAssociative": false,
        "isLoop": false,
        "isAssign": false,
        "prefix": false,
        "postfix": false,
        "binop": null
      },
      "start": 571,
      "end": 572,
      "loc": {
        "start": {
          "line": 20,
          "column": 4
        },
        "end": {
          "line": 20,
          "column": 5
        }
      }
    },
    {
      "type": {
        "label": "/",
        "beforeExpr": true,
        "startsExpr": false,
        "rightAssociative": false,
        "isLoop": false,
        "isAssign": false,
        "prefix": false,
        "postfix": false,
        "binop": 10,
        "updateContext": null
      },
      "value": "/",
      "start": 572,
      "end": 573,
      "loc": {
        "start": {
          "line": 20,
          "column": 5
        },
        "end": {
          "line": 20,
          "column": 6
        }
      }
    },
    {
      "type": {
        "label": "jsxName",
        "beforeExpr": false,
        "startsExpr": false,
        "rightAssociative": false,
        "isLoop": false,
        "isAssign": false,
        "prefix": false,
        "postfix": false,
        "binop": null,
        "updateContext": null
      },
      "value": "MediaQuery",
      "start": 573,
      "end": 583,
      "loc": {
        "start": {
          "line": 20,
          "column": 6
        },
        "end": {
          "line": 20,
          "column": 16
        }
      }
    },
    {
      "type": {
        "label": "jsxTagEnd",
        "beforeExpr": false,
        "startsExpr": false,
        "rightAssociative": false,
        "isLoop": false,
        "isAssign": false,
        "prefix": false,
        "postfix": false,
        "binop": null
      },
      "start": 583,
      "end": 584,
      "loc": {
        "start": {
          "line": 20,
          "column": 16
        },
        "end": {
          "line": 20,
          "column": 17
        }
      }
    },
    {
      "type": {
        "label": ")",
        "beforeExpr": false,
        "startsExpr": false,
        "rightAssociative": false,
        "isLoop": false,
        "isAssign": false,
        "prefix": false,
        "postfix": false,
        "binop": null
      },
      "start": 587,
      "end": 588,
      "loc": {
        "start": {
          "line": 21,
          "column": 2
        },
        "end": {
          "line": 21,
          "column": 3
        }
      }
    },
    {
      "type": {
        "label": ";",
        "beforeExpr": true,
        "startsExpr": false,
        "rightAssociative": false,
        "isLoop": false,
        "isAssign": false,
        "prefix": false,
        "postfix": false,
        "binop": null,
        "updateContext": null
      },
      "start": 588,
      "end": 589,
      "loc": {
        "start": {
          "line": 21,
          "column": 3
        },
        "end": {
          "line": 21,
          "column": 4
        }
      }
    },
    {
      "type": {
        "label": "}",
        "beforeExpr": false,
        "startsExpr": false,
        "rightAssociative": false,
        "isLoop": false,
        "isAssign": false,
        "prefix": false,
        "postfix": false,
        "binop": null
      },
      "start": 590,
      "end": 591,
      "loc": {
        "start": {
          "line": 22,
          "column": 0
        },
        "end": {
          "line": 22,
          "column": 1
        }
      }
    },
    {
      "type": {
        "label": "name",
        "beforeExpr": false,
        "startsExpr": true,
        "rightAssociative": false,
        "isLoop": false,
        "isAssign": false,
        "prefix": false,
        "postfix": false,
        "binop": null
      },
      "value": "TabletSize",
      "start": 593,
      "end": 603,
      "loc": {
        "start": {
          "line": 24,
          "column": 0
        },
        "end": {
          "line": 24,
          "column": 10
        }
      }
    },
    {
      "type": {
        "label": ".",
        "beforeExpr": false,
        "startsExpr": false,
        "rightAssociative": false,
        "isLoop": false,
        "isAssign": false,
        "prefix": false,
        "postfix": false,
        "binop": null,
        "updateContext": null
      },
      "start": 603,
      "end": 604,
      "loc": {
        "start": {
          "line": 24,
          "column": 10
        },
        "end": {
          "line": 24,
          "column": 11
        }
      }
    },
    {
      "type": {
        "label": "name",
        "beforeExpr": false,
        "startsExpr": true,
        "rightAssociative": false,
        "isLoop": false,
        "isAssign": false,
        "prefix": false,
        "postfix": false,
        "binop": null
      },
      "value": "propTypes",
      "start": 604,
      "end": 613,
      "loc": {
        "start": {
          "line": 24,
          "column": 11
        },
        "end": {
          "line": 24,
          "column": 20
        }
      }
    },
    {
      "type": {
        "label": "=",
        "beforeExpr": true,
        "startsExpr": false,
        "rightAssociative": false,
        "isLoop": false,
        "isAssign": true,
        "prefix": false,
        "postfix": false,
        "binop": null,
        "updateContext": null
      },
      "value": "=",
      "start": 614,
      "end": 615,
      "loc": {
        "start": {
          "line": 24,
          "column": 21
        },
        "end": {
          "line": 24,
          "column": 22
        }
      }
    },
    {
      "type": {
        "label": "{",
        "beforeExpr": true,
        "startsExpr": true,
        "rightAssociative": false,
        "isLoop": false,
        "isAssign": false,
        "prefix": false,
        "postfix": false,
        "binop": null
      },
      "start": 616,
      "end": 617,
      "loc": {
        "start": {
          "line": 24,
          "column": 23
        },
        "end": {
          "line": 24,
          "column": 24
        }
      }
    },
    {
      "type": {
        "label": "name",
        "beforeExpr": false,
        "startsExpr": true,
        "rightAssociative": false,
        "isLoop": false,
        "isAssign": false,
        "prefix": false,
        "postfix": false,
        "binop": null
      },
      "value": "children",
      "start": 620,
      "end": 628,
      "loc": {
        "start": {
          "line": 25,
          "column": 2
        },
        "end": {
          "line": 25,
          "column": 10
        }
      }
    },
    {
      "type": {
        "label": ":",
        "beforeExpr": true,
        "startsExpr": false,
        "rightAssociative": false,
        "isLoop": false,
        "isAssign": false,
        "prefix": false,
        "postfix": false,
        "binop": null,
        "updateContext": null
      },
      "start": 628,
      "end": 629,
      "loc": {
        "start": {
          "line": 25,
          "column": 10
        },
        "end": {
          "line": 25,
          "column": 11
        }
      }
    },
    {
      "type": {
        "label": "name",
        "beforeExpr": false,
        "startsExpr": true,
        "rightAssociative": false,
        "isLoop": false,
        "isAssign": false,
        "prefix": false,
        "postfix": false,
        "binop": null
      },
      "value": "PropTypes",
      "start": 630,
      "end": 639,
      "loc": {
        "start": {
          "line": 25,
          "column": 12
        },
        "end": {
          "line": 25,
          "column": 21
        }
      }
    },
    {
      "type": {
        "label": ".",
        "beforeExpr": false,
        "startsExpr": false,
        "rightAssociative": false,
        "isLoop": false,
        "isAssign": false,
        "prefix": false,
        "postfix": false,
        "binop": null,
        "updateContext": null
      },
      "start": 639,
      "end": 640,
      "loc": {
        "start": {
          "line": 25,
          "column": 21
        },
        "end": {
          "line": 25,
          "column": 22
        }
      }
    },
    {
      "type": {
        "label": "name",
        "beforeExpr": false,
        "startsExpr": true,
        "rightAssociative": false,
        "isLoop": false,
        "isAssign": false,
        "prefix": false,
        "postfix": false,
        "binop": null
      },
      "value": "any",
      "start": 640,
      "end": 643,
      "loc": {
        "start": {
          "line": 25,
          "column": 22
        },
        "end": {
          "line": 25,
          "column": 25
        }
      }
    },
    {
      "type": {
        "label": ".",
        "beforeExpr": false,
        "startsExpr": false,
        "rightAssociative": false,
        "isLoop": false,
        "isAssign": false,
        "prefix": false,
        "postfix": false,
        "binop": null,
        "updateContext": null
      },
      "start": 643,
      "end": 644,
      "loc": {
        "start": {
          "line": 25,
          "column": 25
        },
        "end": {
          "line": 25,
          "column": 26
        }
      }
    },
    {
      "type": {
        "label": "name",
        "beforeExpr": false,
        "startsExpr": true,
        "rightAssociative": false,
        "isLoop": false,
        "isAssign": false,
        "prefix": false,
        "postfix": false,
        "binop": null
      },
      "value": "isRequired",
      "start": 644,
      "end": 654,
      "loc": {
        "start": {
          "line": 25,
          "column": 26
        },
        "end": {
          "line": 25,
          "column": 36
        }
      }
    },
    {
      "type": {
        "label": "}",
        "beforeExpr": false,
        "startsExpr": false,
        "rightAssociative": false,
        "isLoop": false,
        "isAssign": false,
        "prefix": false,
        "postfix": false,
        "binop": null
      },
      "start": 655,
      "end": 656,
      "loc": {
        "start": {
          "line": 26,
          "column": 0
        },
        "end": {
          "line": 26,
          "column": 1
        }
      }
    },
    {
      "type": {
        "label": ";",
        "beforeExpr": true,
        "startsExpr": false,
        "rightAssociative": false,
        "isLoop": false,
        "isAssign": false,
        "prefix": false,
        "postfix": false,
        "binop": null,
        "updateContext": null
      },
      "start": 656,
      "end": 657,
      "loc": {
        "start": {
          "line": 26,
          "column": 1
        },
        "end": {
          "line": 26,
          "column": 2
        }
      }
    },
    {
      "type": {
        "label": "export",
        "keyword": "export",
        "beforeExpr": false,
        "startsExpr": false,
        "rightAssociative": false,
        "isLoop": false,
        "isAssign": false,
        "prefix": false,
        "postfix": false,
        "binop": null,
        "updateContext": null
      },
      "value": "export",
      "start": 659,
      "end": 665,
      "loc": {
        "start": {
          "line": 28,
          "column": 0
        },
        "end": {
          "line": 28,
          "column": 6
        }
      }
    },
    {
      "type": {
        "label": "default",
        "keyword": "default",
        "beforeExpr": true,
        "startsExpr": false,
        "rightAssociative": false,
        "isLoop": false,
        "isAssign": false,
        "prefix": false,
        "postfix": false,
        "binop": null,
        "updateContext": null
      },
      "value": "default",
      "start": 666,
      "end": 673,
      "loc": {
        "start": {
          "line": 28,
          "column": 7
        },
        "end": {
          "line": 28,
          "column": 14
        }
      }
    },
    {
      "type": {
        "label": "name",
        "beforeExpr": false,
        "startsExpr": true,
        "rightAssociative": false,
        "isLoop": false,
        "isAssign": false,
        "prefix": false,
        "postfix": false,
        "binop": null
      },
      "value": "TabletSize",
      "start": 674,
      "end": 684,
      "loc": {
        "start": {
          "line": 28,
          "column": 15
        },
        "end": {
          "line": 28,
          "column": 25
        }
      }
    },
    {
      "type": {
        "label": ";",
        "beforeExpr": true,
        "startsExpr": false,
        "rightAssociative": false,
        "isLoop": false,
        "isAssign": false,
        "prefix": false,
        "postfix": false,
        "binop": null,
        "updateContext": null
      },
      "start": 684,
      "end": 685,
      "loc": {
        "start": {
          "line": 28,
          "column": 25
        },
        "end": {
          "line": 28,
          "column": 26
        }
      }
    },
    {
      "type": {
        "label": "eof",
        "beforeExpr": false,
        "startsExpr": false,
        "rightAssociative": false,
        "isLoop": false,
        "isAssign": false,
        "prefix": false,
        "postfix": false,
        "binop": null,
        "updateContext": null
      },
      "start": 686,
      "end": 686,
      "loc": {
        "start": {
          "line": 29,
          "column": 0
        },
        "end": {
          "line": 29,
          "column": 0
        }
      }
    }
  ]
}