{
  "type": "File",
  "start": 0,
  "end": 685,
  "loc": {
    "start": {
      "line": 1,
      "column": 0
    },
    "end": {
      "line": 30,
      "column": 0
    }
  },
  "program": {
    "type": "Program",
    "start": 0,
    "end": 685,
    "loc": {
      "start": {
        "line": 1,
        "column": 0
      },
      "end": {
        "line": 30,
        "column": 0
      }
    },
    "sourceType": "module",
    "body": [
      {
        "type": "ImportDeclaration",
        "start": 0,
        "end": 77,
        "loc": {
          "start": {
            "line": 1,
            "column": 0
          },
          "end": {
            "line": 1,
            "column": 77
          }
        },
        "specifiers": [
          {
            "type": "ImportSpecifier",
            "start": 9,
            "end": 27,
            "loc": {
              "start": {
                "line": 1,
                "column": 9
              },
              "end": {
                "line": 1,
                "column": 27
              }
            },
            "imported": {
              "type": "Identifier",
              "start": 9,
              "end": 27,
              "loc": {
                "start": {
                  "line": 1,
                  "column": 9
                },
                "end": {
                  "line": 1,
                  "column": 27
                },
                "identifierName": "FETCH_API_RECEIVED"
              },
              "name": "FETCH_API_RECEIVED"
            },
            "local": {
              "type": "Identifier",
              "start": 9,
              "end": 27,
              "loc": {
                "start": {
                  "line": 1,
                  "column": 9
                },
                "end": {
                  "line": 1,
                  "column": 27
                },
                "identifierName": "FETCH_API_RECEIVED"
              },
              "name": "FETCH_API_RECEIVED"
            }
          },
          {
            "type": "ImportSpecifier",
            "start": 29,
            "end": 42,
            "loc": {
              "start": {
                "line": 1,
                "column": 29
              },
              "end": {
                "line": 1,
                "column": 42
              }
            },
            "imported": {
              "type": "Identifier",
              "start": 29,
              "end": 42,
              "loc": {
                "start": {
                  "line": 1,
                  "column": 29
                },
                "end": {
                  "line": 1,
                  "column": 42
                },
                "identifierName": "FETCH_LOADING"
              },
              "name": "FETCH_LOADING"
            },
            "local": {
              "type": "Identifier",
              "start": 29,
              "end": 42,
              "loc": {
                "start": {
                  "line": 1,
                  "column": 29
                },
                "end": {
                  "line": 1,
                  "column": 42
                },
                "identifierName": "FETCH_LOADING"
              },
              "name": "FETCH_LOADING"
            }
          }
        ],
        "source": {
          "type": "StringLiteral",
          "start": 50,
          "end": 76,
          "loc": {
            "start": {
              "line": 1,
              "column": 50
            },
            "end": {
              "line": 1,
              "column": 76
            }
          },
          "extra": {
            "rawValue": "../constants/ActionTypes",
            "raw": "'../constants/ActionTypes'"
          },
          "value": "../constants/ActionTypes"
        },
        "trailingComments": [
          {
            "type": "CommentBlock",
            "value": "*\n * The initial state for the reducer\n * @type {Object}\n ",
            "start": 79,
            "end": 141,
            "loc": {
              "start": {
                "line": 3,
                "column": 0
              },
              "end": {
                "line": 6,
                "column": 3
              }
            }
          }
        ]
      },
      {
        "type": "VariableDeclaration",
        "start": 142,
        "end": 204,
        "loc": {
          "start": {
            "line": 7,
            "column": 0
          },
          "end": {
            "line": 10,
            "column": 2
          }
        },
        "declarations": [
          {
            "type": "VariableDeclarator",
            "start": 148,
            "end": 203,
            "loc": {
              "start": {
                "line": 7,
                "column": 6
              },
              "end": {
                "line": 10,
                "column": 1
              }
            },
            "id": {
              "type": "Identifier",
              "start": 148,
              "end": 160,
              "loc": {
                "start": {
                  "line": 7,
                  "column": 6
                },
                "end": {
                  "line": 7,
                  "column": 18
                },
                "identifierName": "initialState"
              },
              "name": "initialState",
              "leadingComments": null
            },
            "init": {
              "type": "ObjectExpression",
              "start": 163,
              "end": 203,
              "loc": {
                "start": {
                  "line": 7,
                  "column": 21
                },
                "end": {
                  "line": 10,
                  "column": 1
                }
              },
              "properties": [
                {
                  "type": "ObjectProperty",
                  "start": 167,
                  "end": 187,
                  "loc": {
                    "start": {
                      "line": 8,
                      "column": 2
                    },
                    "end": {
                      "line": 8,
                      "column": 22
                    }
                  },
                  "method": false,
                  "shorthand": false,
                  "computed": false,
                  "key": {
                    "type": "Identifier",
                    "start": 167,
                    "end": 178,
                    "loc": {
                      "start": {
                        "line": 8,
                        "column": 2
                      },
                      "end": {
                        "line": 8,
                        "column": 13
                      },
                      "identifierName": "searchValue"
                    },
                    "name": "searchValue"
                  },
                  "value": {
                    "type": "StringLiteral",
                    "start": 180,
                    "end": 187,
                    "loc": {
                      "start": {
                        "line": 8,
                        "column": 15
                      },
                      "end": {
                        "line": 8,
                        "column": 22
                      }
                    },
                    "extra": {
                      "rawValue": "CReMa",
                      "raw": "'CReMa'"
                    },
                    "value": "CReMa"
                  }
                },
                {
                  "type": "ObjectProperty",
                  "start": 191,
                  "end": 201,
                  "loc": {
                    "start": {
                      "line": 9,
                      "column": 2
                    },
                    "end": {
                      "line": 9,
                      "column": 12
                    }
                  },
                  "method": false,
                  "shorthand": false,
                  "computed": false,
                  "key": {
                    "type": "Identifier",
                    "start": 191,
                    "end": 195,
                    "loc": {
                      "start": {
                        "line": 9,
                        "column": 2
                      },
                      "end": {
                        "line": 9,
                        "column": 6
                      },
                      "identifierName": "data"
                    },
                    "name": "data"
                  },
                  "value": {
                    "type": "NullLiteral",
                    "start": 197,
                    "end": 201,
                    "loc": {
                      "start": {
                        "line": 9,
                        "column": 8
                      },
                      "end": {
                        "line": 9,
                        "column": 12
                      }
                    }
                  }
                }
              ]
            },
            "leadingComments": null
          }
        ],
        "kind": "const",
        "leadingComments": [
          {
            "type": "CommentBlock",
            "value": "*\n * The initial state for the reducer\n * @type {Object}\n ",
            "start": 79,
            "end": 141,
            "loc": {
              "start": {
                "line": 3,
                "column": 0
              },
              "end": {
                "line": 6,
                "column": 3
              }
            }
          }
        ],
        "trailingComments": [
          {
            "type": "CommentBlock",
            "value": "*\n * The reducer for the FetchApi page\n * @param  {Object} state The actual state of the reducer\n * @param  {Object} action The action that modifies the state\n * @return {Object}        The new state\n ",
            "start": 206,
            "end": 411,
            "loc": {
              "start": {
                "line": 12,
                "column": 0
              },
              "end": {
                "line": 17,
                "column": 3
              }
            }
          }
        ]
      },
      {
        "type": "ExportDefaultDeclaration",
        "start": 412,
        "end": 684,
        "loc": {
          "start": {
            "line": 18,
            "column": 0
          },
          "end": {
            "line": 29,
            "column": 1
          }
        },
        "declaration": {
          "type": "FunctionDeclaration",
          "start": 427,
          "end": 684,
          "loc": {
            "start": {
              "line": 18,
              "column": 15
            },
            "end": {
              "line": 29,
              "column": 1
            }
          },
          "id": {
            "type": "Identifier",
            "start": 436,
            "end": 448,
            "loc": {
              "start": {
                "line": 18,
                "column": 24
              },
              "end": {
                "line": 18,
                "column": 36
              },
              "identifierName": "fetchReducer"
            },
            "name": "fetchReducer",
            "leadingComments": null
          },
          "generator": false,
          "expression": false,
          "async": false,
          "params": [
            {
              "type": "AssignmentPattern",
              "start": 449,
              "end": 469,
              "loc": {
                "start": {
                  "line": 18,
                  "column": 37
                },
                "end": {
                  "line": 18,
                  "column": 57
                }
              },
              "left": {
                "type": "Identifier",
                "start": 449,
                "end": 454,
                "loc": {
                  "start": {
                    "line": 18,
                    "column": 37
                  },
                  "end": {
                    "line": 18,
                    "column": 42
                  },
                  "identifierName": "state"
                },
                "name": "state"
              },
              "right": {
                "type": "Identifier",
                "start": 457,
                "end": 469,
                "loc": {
                  "start": {
                    "line": 18,
                    "column": 45
                  },
                  "end": {
                    "line": 18,
                    "column": 57
                  },
                  "identifierName": "initialState"
                },
                "name": "initialState"
              }
            },
            {
              "type": "Identifier",
              "start": 471,
              "end": 477,
              "loc": {
                "start": {
                  "line": 18,
                  "column": 59
                },
                "end": {
                  "line": 18,
                  "column": 65
                },
                "identifierName": "action"
              },
              "name": "action"
            }
          ],
          "body": {
            "type": "BlockStatement",
            "start": 479,
            "end": 684,
            "loc": {
              "start": {
                "line": 18,
                "column": 67
              },
              "end": {
                "line": 29,
                "column": 1
              }
            },
            "body": [
              {
                "type": "SwitchStatement",
                "start": 483,
                "end": 682,
                "loc": {
                  "start": {
                    "line": 19,
                    "column": 2
                  },
                  "end": {
                    "line": 28,
                    "column": 3
                  }
                },
                "discriminant": {
                  "type": "MemberExpression",
                  "start": 491,
                  "end": 502,
                  "loc": {
                    "start": {
                      "line": 19,
                      "column": 10
                    },
                    "end": {
                      "line": 19,
                      "column": 21
                    }
                  },
                  "object": {
                    "type": "Identifier",
                    "start": 491,
                    "end": 497,
                    "loc": {
                      "start": {
                        "line": 19,
                        "column": 10
                      },
                      "end": {
                        "line": 19,
                        "column": 16
                      },
                      "identifierName": "action"
                    },
                    "name": "action"
                  },
                  "property": {
                    "type": "Identifier",
                    "start": 498,
                    "end": 502,
                    "loc": {
                      "start": {
                        "line": 19,
                        "column": 17
                      },
                      "end": {
                        "line": 19,
                        "column": 21
                      },
                      "identifierName": "type"
                    },
                    "name": "type"
                  },
                  "computed": false
                },
                "cases": [
                  {
                    "type": "SwitchCase",
                    "start": 510,
                    "end": 568,
                    "loc": {
                      "start": {
                        "line": 20,
                        "column": 4
                      },
                      "end": {
                        "line": 21,
                        "column": 38
                      }
                    },
                    "consequent": [
                      {
                        "type": "ReturnStatement",
                        "start": 536,
                        "end": 568,
                        "loc": {
                          "start": {
                            "line": 21,
                            "column": 6
                          },
                          "end": {
                            "line": 21,
                            "column": 38
                          }
                        },
                        "argument": {
                          "type": "ObjectExpression",
                          "start": 543,
                          "end": 567,
                          "loc": {
                            "start": {
                              "line": 21,
                              "column": 13
                            },
                            "end": {
                              "line": 21,
                              "column": 37
                            }
                          },
                          "properties": [
                            {
                              "type": "SpreadProperty",
                              "start": 545,
                              "end": 553,
                              "loc": {
                                "start": {
                                  "line": 21,
                                  "column": 15
                                },
                                "end": {
                                  "line": 21,
                                  "column": 23
                                }
                              },
                              "argument": {
                                "type": "Identifier",
                                "start": 548,
                                "end": 553,
                                "loc": {
                                  "start": {
                                    "line": 21,
                                    "column": 18
                                  },
                                  "end": {
                                    "line": 21,
                                    "column": 23
                                  },
                                  "identifierName": "state"
                                },
                                "name": "state"
                              }
                            },
                            {
                              "type": "ObjectProperty",
                              "start": 555,
                              "end": 565,
                              "loc": {
                                "start": {
                                  "line": 21,
                                  "column": 25
                                },
                                "end": {
                                  "line": 21,
                                  "column": 35
                                }
                              },
                              "method": false,
                              "shorthand": false,
                              "computed": false,
                              "key": {
                                "type": "Identifier",
                                "start": 555,
                                "end": 559,
                                "loc": {
                                  "start": {
                                    "line": 21,
                                    "column": 25
                                  },
                                  "end": {
                                    "line": 21,
                                    "column": 29
                                  },
                                  "identifierName": "data"
                                },
                                "name": "data"
                              },
                              "value": {
                                "type": "NullLiteral",
                                "start": 561,
                                "end": 565,
                                "loc": {
                                  "start": {
                                    "line": 21,
                                    "column": 31
                                  },
                                  "end": {
                                    "line": 21,
                                    "column": 35
                                  }
                                }
                              }
                            }
                          ]
                        }
                      }
                    ],
                    "test": {
                      "type": "Identifier",
                      "start": 515,
                      "end": 528,
                      "loc": {
                        "start": {
                          "line": 20,
                          "column": 9
                        },
                        "end": {
                          "line": 20,
                          "column": 22
                        },
                        "identifierName": "FETCH_LOADING"
                      },
                      "name": "FETCH_LOADING"
                    }
                  },
                  {
                    "type": "SwitchCase",
                    "start": 574,
                    "end": 644,
                    "loc": {
                      "start": {
                        "line": 23,
                        "column": 4
                      },
                      "end": {
                        "line": 24,
                        "column": 45
                      }
                    },
                    "consequent": [
                      {
                        "type": "ReturnStatement",
                        "start": 605,
                        "end": 644,
                        "loc": {
                          "start": {
                            "line": 24,
                            "column": 6
                          },
                          "end": {
                            "line": 24,
                            "column": 45
                          }
                        },
                        "argument": {
                          "type": "ObjectExpression",
                          "start": 612,
                          "end": 643,
                          "loc": {
                            "start": {
                              "line": 24,
                              "column": 13
                            },
                            "end": {
                              "line": 24,
                              "column": 44
                            }
                          },
                          "properties": [
                            {
                              "type": "SpreadProperty",
                              "start": 614,
                              "end": 622,
                              "loc": {
                                "start": {
                                  "line": 24,
                                  "column": 15
                                },
                                "end": {
                                  "line": 24,
                                  "column": 23
                                }
                              },
                              "argument": {
                                "type": "Identifier",
                                "start": 617,
                                "end": 622,
                                "loc": {
                                  "start": {
                                    "line": 24,
                                    "column": 18
                                  },
                                  "end": {
                                    "line": 24,
                                    "column": 23
                                  },
                                  "identifierName": "state"
                                },
                                "name": "state"
                              }
                            },
                            {
                              "type": "ObjectProperty",
                              "start": 624,
                              "end": 641,
                              "loc": {
                                "start": {
                                  "line": 24,
                                  "column": 25
                                },
                                "end": {
                                  "line": 24,
                                  "column": 42
                                }
                              },
                              "method": false,
                              "shorthand": false,
                              "computed": false,
                              "key": {
                                "type": "Identifier",
                                "start": 624,
                                "end": 628,
                                "loc": {
                                  "start": {
                                    "line": 24,
                                    "column": 25
                                  },
                                  "end": {
                                    "line": 24,
                                    "column": 29
                                  },
                                  "identifierName": "data"
                                },
                                "name": "data"
                              },
                              "value": {
                                "type": "MemberExpression",
                                "start": 630,
                                "end": 641,
                                "loc": {
                                  "start": {
                                    "line": 24,
                                    "column": 31
                                  },
                                  "end": {
                                    "line": 24,
                                    "column": 42
                                  }
                                },
                                "object": {
                                  "type": "Identifier",
                                  "start": 630,
                                  "end": 636,
                                  "loc": {
                                    "start": {
                                      "line": 24,
                                      "column": 31
                                    },
                                    "end": {
                                      "line": 24,
                                      "column": 37
                                    },
                                    "identifierName": "action"
                                  },
                                  "name": "action"
                                },
                                "property": {
                                  "type": "Identifier",
                                  "start": 637,
                                  "end": 641,
                                  "loc": {
                                    "start": {
                                      "line": 24,
                                      "column": 38
                                    },
                                    "end": {
                                      "line": 24,
                                      "column": 42
                                    },
                                    "identifierName": "data"
                                  },
                                  "name": "data"
                                },
                                "computed": false
                              }
                            }
                          ]
                        }
                      }
                    ],
                    "test": {
                      "type": "Identifier",
                      "start": 579,
                      "end": 597,
                      "loc": {
                        "start": {
                          "line": 23,
                          "column": 9
                        },
                        "end": {
                          "line": 23,
                          "column": 27
                        },
                        "identifierName": "FETCH_API_RECEIVED"
                      },
                      "name": "FETCH_API_RECEIVED"
                    }
                  },
                  {
                    "type": "SwitchCase",
                    "start": 650,
                    "end": 678,
                    "loc": {
                      "start": {
                        "line": 26,
                        "column": 4
                      },
                      "end": {
                        "line": 27,
                        "column": 19
                      }
                    },
                    "consequent": [
                      {
                        "type": "ReturnStatement",
                        "start": 665,
                        "end": 678,
                        "loc": {
                          "start": {
                            "line": 27,
                            "column": 6
                          },
                          "end": {
                            "line": 27,
                            "column": 19
                          }
                        },
                        "argument": {
                          "type": "Identifier",
                          "start": 672,
                          "end": 677,
                          "loc": {
                            "start": {
                              "line": 27,
                              "column": 13
                            },
                            "end": {
                              "line": 27,
                              "column": 18
                            },
                            "identifierName": "state"
                          },
                          "name": "state"
                        }
                      }
                    ],
                    "test": null
                  }
                ]
              }
            ],
            "directives": []
          },
          "leadingComments": [
            {
              "type": "CommentBlock",
              "value": "*\n * The reducer for the FetchApi page\n * @param  {Object} state The actual state of the reducer\n * @param  {Object} action The action that modifies the state\n * @return {Object}        The new state\n ",
              "start": 206,
              "end": 411,
              "loc": {
                "start": {
                  "line": 12,
                  "column": 0
                },
                "end": {
                  "line": 17,
                  "column": 3
                }
              }
            }
          ],
          "trailingComments": []
        },
        "leadingComments": [
          {
            "type": "CommentBlock",
            "value": "*\n * The reducer for the FetchApi page\n * @param  {Object} state The actual state of the reducer\n * @param  {Object} action The action that modifies the state\n * @return {Object}        The new state\n ",
            "start": 206,
            "end": 411,
            "loc": {
              "start": {
                "line": 12,
                "column": 0
              },
              "end": {
                "line": 17,
                "column": 3
              }
            }
          }
        ]
      }
    ],
    "directives": []
  },
  "comments": [
    {
      "type": "CommentBlock",
      "value": "*\n * The initial state for the reducer\n * @type {Object}\n ",
      "start": 79,
      "end": 141,
      "loc": {
        "start": {
          "line": 3,
          "column": 0
        },
        "end": {
          "line": 6,
          "column": 3
        }
      }
    },
    {
      "type": "CommentBlock",
      "value": "*\n * The reducer for the FetchApi page\n * @param  {Object} state The actual state of the reducer\n * @param  {Object} action The action that modifies the state\n * @return {Object}        The new state\n ",
      "start": 206,
      "end": 411,
      "loc": {
        "start": {
          "line": 12,
          "column": 0
        },
        "end": {
          "line": 17,
          "column": 3
        }
      }
    }
  ],
  "tokens": [
    {
      "type": {
        "label": "import",
        "keyword": "import",
        "beforeExpr": false,
        "startsExpr": true,
        "rightAssociative": false,
        "isLoop": false,
        "isAssign": false,
        "prefix": false,
        "postfix": false,
        "binop": null,
        "updateContext": null
      },
      "value": "import",
      "start": 0,
      "end": 6,
      "loc": {
        "start": {
          "line": 1,
          "column": 0
        },
        "end": {
          "line": 1,
          "column": 6
        }
      }
    },
    {
      "type": {
        "label": "{",
        "beforeExpr": true,
        "startsExpr": true,
        "rightAssociative": false,
        "isLoop": false,
        "isAssign": false,
        "prefix": false,
        "postfix": false,
        "binop": null
      },
      "start": 7,
      "end": 8,
      "loc": {
        "start": {
          "line": 1,
          "column": 7
        },
        "end": {
          "line": 1,
          "column": 8
        }
      }
    },
    {
      "type": {
        "label": "name",
        "beforeExpr": false,
        "startsExpr": true,
        "rightAssociative": false,
        "isLoop": false,
        "isAssign": false,
        "prefix": false,
        "postfix": false,
        "binop": null
      },
      "value": "FETCH_API_RECEIVED",
      "start": 9,
      "end": 27,
      "loc": {
        "start": {
          "line": 1,
          "column": 9
        },
        "end": {
          "line": 1,
          "column": 27
        }
      }
    },
    {
      "type": {
        "label": ",",
        "beforeExpr": true,
        "startsExpr": false,
        "rightAssociative": false,
        "isLoop": false,
        "isAssign": false,
        "prefix": false,
        "postfix": false,
        "binop": null,
        "updateContext": null
      },
      "start": 27,
      "end": 28,
      "loc": {
        "start": {
          "line": 1,
          "column": 27
        },
        "end": {
          "line": 1,
          "column": 28
        }
      }
    },
    {
      "type": {
        "label": "name",
        "beforeExpr": false,
        "startsExpr": true,
        "rightAssociative": false,
        "isLoop": false,
        "isAssign": false,
        "prefix": false,
        "postfix": false,
        "binop": null
      },
      "value": "FETCH_LOADING",
      "start": 29,
      "end": 42,
      "loc": {
        "start": {
          "line": 1,
          "column": 29
        },
        "end": {
          "line": 1,
          "column": 42
        }
      }
    },
    {
      "type": {
        "label": "}",
        "beforeExpr": false,
        "startsExpr": false,
        "rightAssociative": false,
        "isLoop": false,
        "isAssign": false,
        "prefix": false,
        "postfix": false,
        "binop": null
      },
      "start": 43,
      "end": 44,
      "loc": {
        "start": {
          "line": 1,
          "column": 43
        },
        "end": {
          "line": 1,
          "column": 44
        }
      }
    },
    {
      "type": {
        "label": "name",
        "beforeExpr": false,
        "startsExpr": true,
        "rightAssociative": false,
        "isLoop": false,
        "isAssign": false,
        "prefix": false,
        "postfix": false,
        "binop": null
      },
      "value": "from",
      "start": 45,
      "end": 49,
      "loc": {
        "start": {
          "line": 1,
          "column": 45
        },
        "end": {
          "line": 1,
          "column": 49
        }
      }
    },
    {
      "type": {
        "label": "string",
        "beforeExpr": false,
        "startsExpr": true,
        "rightAssociative": false,
        "isLoop": false,
        "isAssign": false,
        "prefix": false,
        "postfix": false,
        "binop": null,
        "updateContext": null
      },
      "value": "../constants/ActionTypes",
      "start": 50,
      "end": 76,
      "loc": {
        "start": {
          "line": 1,
          "column": 50
        },
        "end": {
          "line": 1,
          "column": 76
        }
      }
    },
    {
      "type": {
        "label": ";",
        "beforeExpr": true,
        "startsExpr": false,
        "rightAssociative": false,
        "isLoop": false,
        "isAssign": false,
        "prefix": false,
        "postfix": false,
        "binop": null,
        "updateContext": null
      },
      "start": 76,
      "end": 77,
      "loc": {
        "start": {
          "line": 1,
          "column": 76
        },
        "end": {
          "line": 1,
          "column": 77
        }
      }
    },
    {
      "type": "CommentBlock",
      "value": "*\n * The initial state for the reducer\n * @type {Object}\n ",
      "start": 79,
      "end": 141,
      "loc": {
        "start": {
          "line": 3,
          "column": 0
        },
        "end": {
          "line": 6,
          "column": 3
        }
      }
    },
    {
      "type": {
        "label": "const",
        "keyword": "const",
        "beforeExpr": false,
        "startsExpr": false,
        "rightAssociative": false,
        "isLoop": false,
        "isAssign": false,
        "prefix": false,
        "postfix": false,
        "binop": null,
        "updateContext": null
      },
      "value": "const",
      "start": 142,
      "end": 147,
      "loc": {
        "start": {
          "line": 7,
          "column": 0
        },
        "end": {
          "line": 7,
          "column": 5
        }
      }
    },
    {
      "type": {
        "label": "name",
        "beforeExpr": false,
        "startsExpr": true,
        "rightAssociative": false,
        "isLoop": false,
        "isAssign": false,
        "prefix": false,
        "postfix": false,
        "binop": null
      },
      "value": "initialState",
      "start": 148,
      "end": 160,
      "loc": {
        "start": {
          "line": 7,
          "column": 6
        },
        "end": {
          "line": 7,
          "column": 18
        }
      }
    },
    {
      "type": {
        "label": "=",
        "beforeExpr": true,
        "startsExpr": false,
        "rightAssociative": false,
        "isLoop": false,
        "isAssign": true,
        "prefix": false,
        "postfix": false,
        "binop": null,
        "updateContext": null
      },
      "value": "=",
      "start": 161,
      "end": 162,
      "loc": {
        "start": {
          "line": 7,
          "column": 19
        },
        "end": {
          "line": 7,
          "column": 20
        }
      }
    },
    {
      "type": {
        "label": "{",
        "beforeExpr": true,
        "startsExpr": true,
        "rightAssociative": false,
        "isLoop": false,
        "isAssign": false,
        "prefix": false,
        "postfix": false,
        "binop": null
      },
      "start": 163,
      "end": 164,
      "loc": {
        "start": {
          "line": 7,
          "column": 21
        },
        "end": {
          "line": 7,
          "column": 22
        }
      }
    },
    {
      "type": {
        "label": "name",
        "beforeExpr": false,
        "startsExpr": true,
        "rightAssociative": false,
        "isLoop": false,
        "isAssign": false,
        "prefix": false,
        "postfix": false,
        "binop": null
      },
      "value": "searchValue",
      "start": 167,
      "end": 178,
      "loc": {
        "start": {
          "line": 8,
          "column": 2
        },
        "end": {
          "line": 8,
          "column": 13
        }
      }
    },
    {
      "type": {
        "label": ":",
        "beforeExpr": true,
        "startsExpr": false,
        "rightAssociative": false,
        "isLoop": false,
        "isAssign": false,
        "prefix": false,
        "postfix": false,
        "binop": null,
        "updateContext": null
      },
      "start": 178,
      "end": 179,
      "loc": {
        "start": {
          "line": 8,
          "column": 13
        },
        "end": {
          "line": 8,
          "column": 14
        }
      }
    },
    {
      "type": {
        "label": "string",
        "beforeExpr": false,
        "startsExpr": true,
        "rightAssociative": false,
        "isLoop": false,
        "isAssign": false,
        "prefix": false,
        "postfix": false,
        "binop": null,
        "updateContext": null
      },
      "value": "CReMa",
      "start": 180,
      "end": 187,
      "loc": {
        "start": {
          "line": 8,
          "column": 15
        },
        "end": {
          "line": 8,
          "column": 22
        }
      }
    },
    {
      "type": {
        "label": ",",
        "beforeExpr": true,
        "startsExpr": false,
        "rightAssociative": false,
        "isLoop": false,
        "isAssign": false,
        "prefix": false,
        "postfix": false,
        "binop": null,
        "updateContext": null
      },
      "start": 187,
      "end": 188,
      "loc": {
        "start": {
          "line": 8,
          "column": 22
        },
        "end": {
          "line": 8,
          "column": 23
        }
      }
    },
    {
      "type": {
        "label": "name",
        "beforeExpr": false,
        "startsExpr": true,
        "rightAssociative": false,
        "isLoop": false,
        "isAssign": false,
        "prefix": false,
        "postfix": false,
        "binop": null
      },
      "value": "data",
      "start": 191,
      "end": 195,
      "loc": {
        "start": {
          "line": 9,
          "column": 2
        },
        "end": {
          "line": 9,
          "column": 6
        }
      }
    },
    {
      "type": {
        "label": ":",
        "beforeExpr": true,
        "startsExpr": false,
        "rightAssociative": false,
        "isLoop": false,
        "isAssign": false,
        "prefix": false,
        "postfix": false,
        "binop": null,
        "updateContext": null
      },
      "start": 195,
      "end": 196,
      "loc": {
        "start": {
          "line": 9,
          "column": 6
        },
        "end": {
          "line": 9,
          "column": 7
        }
      }
    },
    {
      "type": {
        "label": "null",
        "keyword": "null",
        "beforeExpr": false,
        "startsExpr": true,
        "rightAssociative": false,
        "isLoop": false,
        "isAssign": false,
        "prefix": false,
        "postfix": false,
        "binop": null,
        "updateContext": null
      },
      "value": "null",
      "start": 197,
      "end": 201,
      "loc": {
        "start": {
          "line": 9,
          "column": 8
        },
        "end": {
          "line": 9,
          "column": 12
        }
      }
    },
    {
      "type": {
        "label": "}",
        "beforeExpr": false,
        "startsExpr": false,
        "rightAssociative": false,
        "isLoop": false,
        "isAssign": false,
        "prefix": false,
        "postfix": false,
        "binop": null
      },
      "start": 202,
      "end": 203,
      "loc": {
        "start": {
          "line": 10,
          "column": 0
        },
        "end": {
          "line": 10,
          "column": 1
        }
      }
    },
    {
      "type": {
        "label": ";",
        "beforeExpr": true,
        "startsExpr": false,
        "rightAssociative": false,
        "isLoop": false,
        "isAssign": false,
        "prefix": false,
        "postfix": false,
        "binop": null,
        "updateContext": null
      },
      "start": 203,
      "end": 204,
      "loc": {
        "start": {
          "line": 10,
          "column": 1
        },
        "end": {
          "line": 10,
          "column": 2
        }
      }
    },
    {
      "type": "CommentBlock",
      "value": "*\n * The reducer for the FetchApi page\n * @param  {Object} state The actual state of the reducer\n * @param  {Object} action The action that modifies the state\n * @return {Object}        The new state\n ",
      "start": 206,
      "end": 411,
      "loc": {
        "start": {
          "line": 12,
          "column": 0
        },
        "end": {
          "line": 17,
          "column": 3
        }
      }
    },
    {
      "type": {
        "label": "export",
        "keyword": "export",
        "beforeExpr": false,
        "startsExpr": false,
        "rightAssociative": false,
        "isLoop": false,
        "isAssign": false,
        "prefix": false,
        "postfix": false,
        "binop": null,
        "updateContext": null
      },
      "value": "export",
      "start": 412,
      "end": 418,
      "loc": {
        "start": {
          "line": 18,
          "column": 0
        },
        "end": {
          "line": 18,
          "column": 6
        }
      }
    },
    {
      "type": {
        "label": "default",
        "keyword": "default",
        "beforeExpr": true,
        "startsExpr": false,
        "rightAssociative": false,
        "isLoop": false,
        "isAssign": false,
        "prefix": false,
        "postfix": false,
        "binop": null,
        "updateContext": null
      },
      "value": "default",
      "start": 419,
      "end": 426,
      "loc": {
        "start": {
          "line": 18,
          "column": 7
        },
        "end": {
          "line": 18,
          "column": 14
        }
      }
    },
    {
      "type": {
        "label": "function",
        "keyword": "function",
        "beforeExpr": false,
        "startsExpr": true,
        "rightAssociative": false,
        "isLoop": false,
        "isAssign": false,
        "prefix": false,
        "postfix": false,
        "binop": null
      },
      "value": "function",
      "start": 427,
      "end": 435,
      "loc": {
        "start": {
          "line": 18,
          "column": 15
        },
        "end": {
          "line": 18,
          "column": 23
        }
      }
    },
    {
      "type": {
        "label": "name",
        "beforeExpr": false,
        "startsExpr": true,
        "rightAssociative": false,
        "isLoop": false,
        "isAssign": false,
        "prefix": false,
        "postfix": false,
        "binop": null
      },
      "value": "fetchReducer",
      "start": 436,
      "end": 448,
      "loc": {
        "start": {
          "line": 18,
          "column": 24
        },
        "end": {
          "line": 18,
          "column": 36
        }
      }
    },
    {
      "type": {
        "label": "(",
        "beforeExpr": true,
        "startsExpr": true,
        "rightAssociative": false,
        "isLoop": false,
        "isAssign": false,
        "prefix": false,
        "postfix": false,
        "binop": null
      },
      "start": 448,
      "end": 449,
      "loc": {
        "start": {
          "line": 18,
          "column": 36
        },
        "end": {
          "line": 18,
          "column": 37
        }
      }
    },
    {
      "type": {
        "label": "name",
        "beforeExpr": false,
        "startsExpr": true,
        "rightAssociative": false,
        "isLoop": false,
        "isAssign": false,
        "prefix": false,
        "postfix": false,
        "binop": null
      },
      "value": "state",
      "start": 449,
      "end": 454,
      "loc": {
        "start": {
          "line": 18,
          "column": 37
        },
        "end": {
          "line": 18,
          "column": 42
        }
      }
    },
    {
      "type": {
        "label": "=",
        "beforeExpr": true,
        "startsExpr": false,
        "rightAssociative": false,
        "isLoop": false,
        "isAssign": true,
        "prefix": false,
        "postfix": false,
        "binop": null,
        "updateContext": null
      },
      "value": "=",
      "start": 455,
      "end": 456,
      "loc": {
        "start": {
          "line": 18,
          "column": 43
        },
        "end": {
          "line": 18,
          "column": 44
        }
      }
    },
    {
      "type": {
        "label": "name",
        "beforeExpr": false,
        "startsExpr": true,
        "rightAssociative": false,
        "isLoop": false,
        "isAssign": false,
        "prefix": false,
        "postfix": false,
        "binop": null
      },
      "value": "initialState",
      "start": 457,
      "end": 469,
      "loc": {
        "start": {
          "line": 18,
          "column": 45
        },
        "end": {
          "line": 18,
          "column": 57
        }
      }
    },
    {
      "type": {
        "label": ",",
        "beforeExpr": true,
        "startsExpr": false,
        "rightAssociative": false,
        "isLoop": false,
        "isAssign": false,
        "prefix": false,
        "postfix": false,
        "binop": null,
        "updateContext": null
      },
      "start": 469,
      "end": 470,
      "loc": {
        "start": {
          "line": 18,
          "column": 57
        },
        "end": {
          "line": 18,
          "column": 58
        }
      }
    },
    {
      "type": {
        "label": "name",
        "beforeExpr": false,
        "startsExpr": true,
        "rightAssociative": false,
        "isLoop": false,
        "isAssign": false,
        "prefix": false,
        "postfix": false,
        "binop": null
      },
      "value": "action",
      "start": 471,
      "end": 477,
      "loc": {
        "start": {
          "line": 18,
          "column": 59
        },
        "end": {
          "line": 18,
          "column": 65
        }
      }
    },
    {
      "type": {
        "label": ")",
        "beforeExpr": false,
        "startsExpr": false,
        "rightAssociative": false,
        "isLoop": false,
        "isAssign": false,
        "prefix": false,
        "postfix": false,
        "binop": null
      },
      "start": 477,
      "end": 478,
      "loc": {
        "start": {
          "line": 18,
          "column": 65
        },
        "end": {
          "line": 18,
          "column": 66
        }
      }
    },
    {
      "type": {
        "label": "{",
        "beforeExpr": true,
        "startsExpr": true,
        "rightAssociative": false,
        "isLoop": false,
        "isAssign": false,
        "prefix": false,
        "postfix": false,
        "binop": null
      },
      "start": 479,
      "end": 480,
      "loc": {
        "start": {
          "line": 18,
          "column": 67
        },
        "end": {
          "line": 18,
          "column": 68
        }
      }
    },
    {
      "type": {
        "label": "switch",
        "keyword": "switch",
        "beforeExpr": false,
        "startsExpr": false,
        "rightAssociative": false,
        "isLoop": false,
        "isAssign": false,
        "prefix": false,
        "postfix": false,
        "binop": null,
        "updateContext": null
      },
      "value": "switch",
      "start": 483,
      "end": 489,
      "loc": {
        "start": {
          "line": 19,
          "column": 2
        },
        "end": {
          "line": 19,
          "column": 8
        }
      }
    },
    {
      "type": {
        "label": "(",
        "beforeExpr": true,
        "startsExpr": true,
        "rightAssociative": false,
        "isLoop": false,
        "isAssign": false,
        "prefix": false,
        "postfix": false,
        "binop": null
      },
      "start": 490,
      "end": 491,
      "loc": {
        "start": {
          "line": 19,
          "column": 9
        },
        "end": {
          "line": 19,
          "column": 10
        }
      }
    },
    {
      "type": {
        "label": "name",
        "beforeExpr": false,
        "startsExpr": true,
        "rightAssociative": false,
        "isLoop": false,
        "isAssign": false,
        "prefix": false,
        "postfix": false,
        "binop": null
      },
      "value": "action",
      "start": 491,
      "end": 497,
      "loc": {
        "start": {
          "line": 19,
          "column": 10
        },
        "end": {
          "line": 19,
          "column": 16
        }
      }
    },
    {
      "type": {
        "label": ".",
        "beforeExpr": false,
        "startsExpr": false,
        "rightAssociative": false,
        "isLoop": false,
        "isAssign": false,
        "prefix": false,
        "postfix": false,
        "binop": null,
        "updateContext": null
      },
      "start": 497,
      "end": 498,
      "loc": {
        "start": {
          "line": 19,
          "column": 16
        },
        "end": {
          "line": 19,
          "column": 17
        }
      }
    },
    {
      "type": {
        "label": "name",
        "beforeExpr": false,
        "startsExpr": true,
        "rightAssociative": false,
        "isLoop": false,
        "isAssign": false,
        "prefix": false,
        "postfix": false,
        "binop": null
      },
      "value": "type",
      "start": 498,
      "end": 502,
      "loc": {
        "start": {
          "line": 19,
          "column": 17
        },
        "end": {
          "line": 19,
          "column": 21
        }
      }
    },
    {
      "type": {
        "label": ")",
        "beforeExpr": false,
        "startsExpr": false,
        "rightAssociative": false,
        "isLoop": false,
        "isAssign": false,
        "prefix": false,
        "postfix": false,
        "binop": null
      },
      "start": 502,
      "end": 503,
      "loc": {
        "start": {
          "line": 19,
          "column": 21
        },
        "end": {
          "line": 19,
          "column": 22
        }
      }
    },
    {
      "type": {
        "label": "{",
        "beforeExpr": true,
        "startsExpr": true,
        "rightAssociative": false,
        "isLoop": false,
        "isAssign": false,
        "prefix": false,
        "postfix": false,
        "binop": null
      },
      "start": 504,
      "end": 505,
      "loc": {
        "start": {
          "line": 19,
          "column": 23
        },
        "end": {
          "line": 19,
          "column": 24
        }
      }
    },
    {
      "type": {
        "label": "case",
        "keyword": "case",
        "beforeExpr": true,
        "startsExpr": false,
        "rightAssociative": false,
        "isLoop": false,
        "isAssign": false,
        "prefix": false,
        "postfix": false,
        "binop": null,
        "updateContext": null
      },
      "value": "case",
      "start": 510,
      "end": 514,
      "loc": {
        "start": {
          "line": 20,
          "column": 4
        },
        "end": {
          "line": 20,
          "column": 8
        }
      }
    },
    {
      "type": {
        "label": "name",
        "beforeExpr": false,
        "startsExpr": true,
        "rightAssociative": false,
        "isLoop": false,
        "isAssign": false,
        "prefix": false,
        "postfix": false,
        "binop": null
      },
      "value": "FETCH_LOADING",
      "start": 515,
      "end": 528,
      "loc": {
        "start": {
          "line": 20,
          "column": 9
        },
        "end": {
          "line": 20,
          "column": 22
        }
      }
    },
    {
      "type": {
        "label": ":",
        "beforeExpr": true,
        "startsExpr": false,
        "rightAssociative": false,
        "isLoop": false,
        "isAssign": false,
        "prefix": false,
        "postfix": false,
        "binop": null,
        "updateContext": null
      },
      "start": 528,
      "end": 529,
      "loc": {
        "start": {
          "line": 20,
          "column": 22
        },
        "end": {
          "line": 20,
          "column": 23
        }
      }
    },
    {
      "type": {
        "label": "return",
        "keyword": "return",
        "beforeExpr": true,
        "startsExpr": false,
        "rightAssociative": false,
        "isLoop": false,
        "isAssign": false,
        "prefix": false,
        "postfix": false,
        "binop": null,
        "updateContext": null
      },
      "value": "return",
      "start": 536,
      "end": 542,
      "loc": {
        "start": {
          "line": 21,
          "column": 6
        },
        "end": {
          "line": 21,
          "column": 12
        }
      }
    },
    {
      "type": {
        "label": "{",
        "beforeExpr": true,
        "startsExpr": true,
        "rightAssociative": false,
        "isLoop": false,
        "isAssign": false,
        "prefix": false,
        "postfix": false,
        "binop": null
      },
      "start": 543,
      "end": 544,
      "loc": {
        "start": {
          "line": 21,
          "column": 13
        },
        "end": {
          "line": 21,
          "column": 14
        }
      }
    },
    {
      "type": {
        "label": "...",
        "beforeExpr": true,
        "startsExpr": false,
        "rightAssociative": false,
        "isLoop": false,
        "isAssign": false,
        "prefix": false,
        "postfix": false,
        "binop": null,
        "updateContext": null
      },
      "start": 545,
      "end": 548,
      "loc": {
        "start": {
          "line": 21,
          "column": 15
        },
        "end": {
          "line": 21,
          "column": 18
        }
      }
    },
    {
      "type": {
        "label": "name",
        "beforeExpr": false,
        "startsExpr": true,
        "rightAssociative": false,
        "isLoop": false,
        "isAssign": false,
        "prefix": false,
        "postfix": false,
        "binop": null
      },
      "value": "state",
      "start": 548,
      "end": 553,
      "loc": {
        "start": {
          "line": 21,
          "column": 18
        },
        "end": {
          "line": 21,
          "column": 23
        }
      }
    },
    {
      "type": {
        "label": ",",
        "beforeExpr": true,
        "startsExpr": false,
        "rightAssociative": false,
        "isLoop": false,
        "isAssign": false,
        "prefix": false,
        "postfix": false,
        "binop": null,
        "updateContext": null
      },
      "start": 553,
      "end": 554,
      "loc": {
        "start": {
          "line": 21,
          "column": 23
        },
        "end": {
          "line": 21,
          "column": 24
        }
      }
    },
    {
      "type": {
        "label": "name",
        "beforeExpr": false,
        "startsExpr": true,
        "rightAssociative": false,
        "isLoop": false,
        "isAssign": false,
        "prefix": false,
        "postfix": false,
        "binop": null
      },
      "value": "data",
      "start": 555,
      "end": 559,
      "loc": {
        "start": {
          "line": 21,
          "column": 25
        },
        "end": {
          "line": 21,
          "column": 29
        }
      }
    },
    {
      "type": {
        "label": ":",
        "beforeExpr": true,
        "startsExpr": false,
        "rightAssociative": false,
        "isLoop": false,
        "isAssign": false,
        "prefix": false,
        "postfix": false,
        "binop": null,
        "updateContext": null
      },
      "start": 559,
      "end": 560,
      "loc": {
        "start": {
          "line": 21,
          "column": 29
        },
        "end": {
          "line": 21,
          "column": 30
        }
      }
    },
    {
      "type": {
        "label": "null",
        "keyword": "null",
        "beforeExpr": false,
        "startsExpr": true,
        "rightAssociative": false,
        "isLoop": false,
        "isAssign": false,
        "prefix": false,
        "postfix": false,
        "binop": null,
        "updateContext": null
      },
      "value": "null",
      "start": 561,
      "end": 565,
      "loc": {
        "start": {
          "line": 21,
          "column": 31
        },
        "end": {
          "line": 21,
          "column": 35
        }
      }
    },
    {
      "type": {
        "label": "}",
        "beforeExpr": false,
        "startsExpr": false,
        "rightAssociative": false,
        "isLoop": false,
        "isAssign": false,
        "prefix": false,
        "postfix": false,
        "binop": null
      },
      "start": 566,
      "end": 567,
      "loc": {
        "start": {
          "line": 21,
          "column": 36
        },
        "end": {
          "line": 21,
          "column": 37
        }
      }
    },
    {
      "type": {
        "label": ";",
        "beforeExpr": true,
        "startsExpr": false,
        "rightAssociative": false,
        "isLoop": false,
        "isAssign": false,
        "prefix": false,
        "postfix": false,
        "binop": null,
        "updateContext": null
      },
      "start": 567,
      "end": 568,
      "loc": {
        "start": {
          "line": 21,
          "column": 37
        },
        "end": {
          "line": 21,
          "column": 38
        }
      }
    },
    {
      "type": {
        "label": "case",
        "keyword": "case",
        "beforeExpr": true,
        "startsExpr": false,
        "rightAssociative": false,
        "isLoop": false,
        "isAssign": false,
        "prefix": false,
        "postfix": false,
        "binop": null,
        "updateContext": null
      },
      "value": "case",
      "start": 574,
      "end": 578,
      "loc": {
        "start": {
          "line": 23,
          "column": 4
        },
        "end": {
          "line": 23,
          "column": 8
        }
      }
    },
    {
      "type": {
        "label": "name",
        "beforeExpr": false,
        "startsExpr": true,
        "rightAssociative": false,
        "isLoop": false,
        "isAssign": false,
        "prefix": false,
        "postfix": false,
        "binop": null
      },
      "value": "FETCH_API_RECEIVED",
      "start": 579,
      "end": 597,
      "loc": {
        "start": {
          "line": 23,
          "column": 9
        },
        "end": {
          "line": 23,
          "column": 27
        }
      }
    },
    {
      "type": {
        "label": ":",
        "beforeExpr": true,
        "startsExpr": false,
        "rightAssociative": false,
        "isLoop": false,
        "isAssign": false,
        "prefix": false,
        "postfix": false,
        "binop": null,
        "updateContext": null
      },
      "start": 597,
      "end": 598,
      "loc": {
        "start": {
          "line": 23,
          "column": 27
        },
        "end": {
          "line": 23,
          "column": 28
        }
      }
    },
    {
      "type": {
        "label": "return",
        "keyword": "return",
        "beforeExpr": true,
        "startsExpr": false,
        "rightAssociative": false,
        "isLoop": false,
        "isAssign": false,
        "prefix": false,
        "postfix": false,
        "binop": null,
        "updateContext": null
      },
      "value": "return",
      "start": 605,
      "end": 611,
      "loc": {
        "start": {
          "line": 24,
          "column": 6
        },
        "end": {
          "line": 24,
          "column": 12
        }
      }
    },
    {
      "type": {
        "label": "{",
        "beforeExpr": true,
        "startsExpr": true,
        "rightAssociative": false,
        "isLoop": false,
        "isAssign": false,
        "prefix": false,
        "postfix": false,
        "binop": null
      },
      "start": 612,
      "end": 613,
      "loc": {
        "start": {
          "line": 24,
          "column": 13
        },
        "end": {
          "line": 24,
          "column": 14
        }
      }
    },
    {
      "type": {
        "label": "...",
        "beforeExpr": true,
        "startsExpr": false,
        "rightAssociative": false,
        "isLoop": false,
        "isAssign": false,
        "prefix": false,
        "postfix": false,
        "binop": null,
        "updateContext": null
      },
      "start": 614,
      "end": 617,
      "loc": {
        "start": {
          "line": 24,
          "column": 15
        },
        "end": {
          "line": 24,
          "column": 18
        }
      }
    },
    {
      "type": {
        "label": "name",
        "beforeExpr": false,
        "startsExpr": true,
        "rightAssociative": false,
        "isLoop": false,
        "isAssign": false,
        "prefix": false,
        "postfix": false,
        "binop": null
      },
      "value": "state",
      "start": 617,
      "end": 622,
      "loc": {
        "start": {
          "line": 24,
          "column": 18
        },
        "end": {
          "line": 24,
          "column": 23
        }
      }
    },
    {
      "type": {
        "label": ",",
        "beforeExpr": true,
        "startsExpr": false,
        "rightAssociative": false,
        "isLoop": false,
        "isAssign": false,
        "prefix": false,
        "postfix": false,
        "binop": null,
        "updateContext": null
      },
      "start": 622,
      "end": 623,
      "loc": {
        "start": {
          "line": 24,
          "column": 23
        },
        "end": {
          "line": 24,
          "column": 24
        }
      }
    },
    {
      "type": {
        "label": "name",
        "beforeExpr": false,
        "startsExpr": true,
        "rightAssociative": false,
        "isLoop": false,
        "isAssign": false,
        "prefix": false,
        "postfix": false,
        "binop": null
      },
      "value": "data",
      "start": 624,
      "end": 628,
      "loc": {
        "start": {
          "line": 24,
          "column": 25
        },
        "end": {
          "line": 24,
          "column": 29
        }
      }
    },
    {
      "type": {
        "label": ":",
        "beforeExpr": true,
        "startsExpr": false,
        "rightAssociative": false,
        "isLoop": false,
        "isAssign": false,
        "prefix": false,
        "postfix": false,
        "binop": null,
        "updateContext": null
      },
      "start": 628,
      "end": 629,
      "loc": {
        "start": {
          "line": 24,
          "column": 29
        },
        "end": {
          "line": 24,
          "column": 30
        }
      }
    },
    {
      "type": {
        "label": "name",
        "beforeExpr": false,
        "startsExpr": true,
        "rightAssociative": false,
        "isLoop": false,
        "isAssign": false,
        "prefix": false,
        "postfix": false,
        "binop": null
      },
      "value": "action",
      "start": 630,
      "end": 636,
      "loc": {
        "start": {
          "line": 24,
          "column": 31
        },
        "end": {
          "line": 24,
          "column": 37
        }
      }
    },
    {
      "type": {
        "label": ".",
        "beforeExpr": false,
        "startsExpr": false,
        "rightAssociative": false,
        "isLoop": false,
        "isAssign": false,
        "prefix": false,
        "postfix": false,
        "binop": null,
        "updateContext": null
      },
      "start": 636,
      "end": 637,
      "loc": {
        "start": {
          "line": 24,
          "column": 37
        },
        "end": {
          "line": 24,
          "column": 38
        }
      }
    },
    {
      "type": {
        "label": "name",
        "beforeExpr": false,
        "startsExpr": true,
        "rightAssociative": false,
        "isLoop": false,
        "isAssign": false,
        "prefix": false,
        "postfix": false,
        "binop": null
      },
      "value": "data",
      "start": 637,
      "end": 641,
      "loc": {
        "start": {
          "line": 24,
          "column": 38
        },
        "end": {
          "line": 24,
          "column": 42
        }
      }
    },
    {
      "type": {
        "label": "}",
        "beforeExpr": false,
        "startsExpr": false,
        "rightAssociative": false,
        "isLoop": false,
        "isAssign": false,
        "prefix": false,
        "postfix": false,
        "binop": null
      },
      "start": 642,
      "end": 643,
      "loc": {
        "start": {
          "line": 24,
          "column": 43
        },
        "end": {
          "line": 24,
          "column": 44
        }
      }
    },
    {
      "type": {
        "label": ";",
        "beforeExpr": true,
        "startsExpr": false,
        "rightAssociative": false,
        "isLoop": false,
        "isAssign": false,
        "prefix": false,
        "postfix": false,
        "binop": null,
        "updateContext": null
      },
      "start": 643,
      "end": 644,
      "loc": {
        "start": {
          "line": 24,
          "column": 44
        },
        "end": {
          "line": 24,
          "column": 45
        }
      }
    },
    {
      "type": {
        "label": "default",
        "keyword": "default",
        "beforeExpr": true,
        "startsExpr": false,
        "rightAssociative": false,
        "isLoop": false,
        "isAssign": false,
        "prefix": false,
        "postfix": false,
        "binop": null,
        "updateContext": null
      },
      "value": "default",
      "start": 650,
      "end": 657,
      "loc": {
        "start": {
          "line": 26,
          "column": 4
        },
        "end": {
          "line": 26,
          "column": 11
        }
      }
    },
    {
      "type": {
        "label": ":",
        "beforeExpr": true,
        "startsExpr": false,
        "rightAssociative": false,
        "isLoop": false,
        "isAssign": false,
        "prefix": false,
        "postfix": false,
        "binop": null,
        "updateContext": null
      },
      "start": 657,
      "end": 658,
      "loc": {
        "start": {
          "line": 26,
          "column": 11
        },
        "end": {
          "line": 26,
          "column": 12
        }
      }
    },
    {
      "type": {
        "label": "return",
        "keyword": "return",
        "beforeExpr": true,
        "startsExpr": false,
        "rightAssociative": false,
        "isLoop": false,
        "isAssign": false,
        "prefix": false,
        "postfix": false,
        "binop": null,
        "updateContext": null
      },
      "value": "return",
      "start": 665,
      "end": 671,
      "loc": {
        "start": {
          "line": 27,
          "column": 6
        },
        "end": {
          "line": 27,
          "column": 12
        }
      }
    },
    {
      "type": {
        "label": "name",
        "beforeExpr": false,
        "startsExpr": true,
        "rightAssociative": false,
        "isLoop": false,
        "isAssign": false,
        "prefix": false,
        "postfix": false,
        "binop": null
      },
      "value": "state",
      "start": 672,
      "end": 677,
      "loc": {
        "start": {
          "line": 27,
          "column": 13
        },
        "end": {
          "line": 27,
          "column": 18
        }
      }
    },
    {
      "type": {
        "label": ";",
        "beforeExpr": true,
        "startsExpr": false,
        "rightAssociative": false,
        "isLoop": false,
        "isAssign": false,
        "prefix": false,
        "postfix": false,
        "binop": null,
        "updateContext": null
      },
      "start": 677,
      "end": 678,
      "loc": {
        "start": {
          "line": 27,
          "column": 18
        },
        "end": {
          "line": 27,
          "column": 19
        }
      }
    },
    {
      "type": {
        "label": "}",
        "beforeExpr": false,
        "startsExpr": false,
        "rightAssociative": false,
        "isLoop": false,
        "isAssign": false,
        "prefix": false,
        "postfix": false,
        "binop": null
      },
      "start": 681,
      "end": 682,
      "loc": {
        "start": {
          "line": 28,
          "column": 2
        },
        "end": {
          "line": 28,
          "column": 3
        }
      }
    },
    {
      "type": {
        "label": "}",
        "beforeExpr": false,
        "startsExpr": false,
        "rightAssociative": false,
        "isLoop": false,
        "isAssign": false,
        "prefix": false,
        "postfix": false,
        "binop": null
      },
      "start": 683,
      "end": 684,
      "loc": {
        "start": {
          "line": 29,
          "column": 0
        },
        "end": {
          "line": 29,
          "column": 1
        }
      }
    },
    {
      "type": {
        "label": "eof",
        "beforeExpr": false,
        "startsExpr": false,
        "rightAssociative": false,
        "isLoop": false,
        "isAssign": false,
        "prefix": false,
        "postfix": false,
        "binop": null,
        "updateContext": null
      },
      "start": 685,
      "end": 685,
      "loc": {
        "start": {
          "line": 30,
          "column": 0
        },
        "end": {
          "line": 30,
          "column": 0
        }
      }
    }
  ]
}